Sun Jun 28 19:12:06 +0000 2015,"[u'CML_VisualFeed', u'$QLYS']"
Sun Jun 28 19:10:03 +0000 2015,"[u'CML_VisualFeed', u'$YOKU']"
Sun Jun 28 19:08:19 +0000 2015,"[u'CML_VisualFeed', u'$ARMK']"
Sun Jun 28 19:08:05 +0000 2015,"[u'CML_VisualFeed', u'$HD']"
Sun Jun 28 19:06:20 +0000 2015,"[u'CML_VisualFeed', u'$DATA']"
Sun Jun 28 19:06:01 +0000 2015,"[u'CML_VisualFeed', u'$SCHW']"
Sun Jun 28 19:04:06 +0000 2015,"[u'CML_VisualFeed', u'$BX']"
Sun Jun 28 19:02:13 +0000 2015,"[u'CML_VisualFeed', u'$SONC']"
Sun Jun 28 18:56:20 +0000 2015,"[u'CML_VisualFeed', u'$MXWL']"
Sun Jun 28 18:56:01 +0000 2015,"[u'CML_VisualFeed', u'$VEEV']"
Sun Jun 28 18:54:24 +0000 2015,"[u'CML_VisualFeed', u'$VIPS']"
Sun Jun 28 18:53:35 +0000 2015,"[u'CML_VisualFeed', u'$URBN']"
Sun Jun 28 18:52:20 +0000 2015,"[u'CML_VisualFeed', u'$REGN']"
Sun Jun 28 18:52:00 +0000 2015,"[u'CML_VisualFeed', u'$QLYS']"
Sun Jun 28 18:50:21 +0000 2015,"[u'CML_VisualFeed', u'$VA']"
Sun Jun 28 18:50:01 +0000 2015,"[u'CML_VisualFeed', u'$LC']"
Sun Jun 28 18:48:09 +0000 2015,"[u'CML_VisualFeed', u'$KMI']"
Sun Jun 28 18:48:03 +0000 2015,"[u'CML_VisualFeed', u'$SBNY']"
Sun Jun 28 18:46:20 +0000 2015,"[u'CML_VisualFeed', u'$MOBL']"
Sun Jun 28 18:46:01 +0000 2015,"[u'CML_VisualFeed', u'$LOW']"
Sun Jun 28 19:12:06 +0000 2015,"[u'CML_VisualFeed', u'$QLYS']"
Sun Jun 28 19:10:03 +0000 2015,"[u'CML_VisualFeed', u'$YOKU']"
Sun Jun 28 19:08:19 +0000 2015,"[u'CML_VisualFeed', u'$ARMK']"
Sun Jun 28 19:08:05 +0000 2015,"[u'CML_VisualFeed', u'$HD']"
Sun Jun 28 19:06:20 +0000 2015,"[u'CML_VisualFeed', u'$DATA']"
Sun Jun 28 19:06:01 +0000 2015,"[u'CML_VisualFeed', u'$SCHW']"
Sun Jun 28 19:04:06 +0000 2015,"[u'CML_VisualFeed', u'$BX']"
Sun Jun 28 19:02:13 +0000 2015,"[u'CML_VisualFeed', u'$SONC']"
Sun Jun 28 18:56:20 +0000 2015,"[u'CML_VisualFeed', u'$MXWL']"
Sun Jun 28 18:56:01 +0000 2015,"[u'CML_VisualFeed', u'$VEEV']"
Sun Jun 28 18:54:24 +0000 2015,"[u'CML_VisualFeed', u'$VIPS']"
Sun Jun 28 18:53:35 +0000 2015,"[u'CML_VisualFeed', u'$URBN']"
Sun Jun 28 18:52:20 +0000 2015,"[u'CML_VisualFeed', u'$REGN']"
Sun Jun 28 18:52:00 +0000 2015,"[u'CML_VisualFeed', u'$QLYS']"
Sun Jun 28 18:50:21 +0000 2015,"[u'CML_VisualFeed', u'$VA']"
Sun Jun 28 18:50:01 +0000 2015,"[u'CML_VisualFeed', u'$LC']"
Sun Jun 28 18:48:09 +0000 2015,"[u'CML_VisualFeed', u'$KMI']"
Sun Jun 28 18:48:03 +0000 2015,"[u'CML_VisualFeed', u'$SBNY']"
Sun Jun 28 18:46:20 +0000 2015,"[u'CML_VisualFeed', u'$MOBL']"
Sun Jun 28 18:46:01 +0000 2015,"[u'CML_VisualFeed', u'$LOW']"
Sun Jun 28 19:12:06 +0000 2015,"[u'CML_VisualFeed', u'$QLYS']"
Sun Jun 28 19:10:03 +0000 2015,"[u'CML_VisualFeed', u'$YOKU']"
Sun Jun 28 19:08:19 +0000 2015,"[u'CML_VisualFeed', u'$ARMK']"
Sun Jun 28 19:08:05 +0000 2015,"[u'CML_VisualFeed', u'$HD']"
Sun Jun 28 19:06:20 +0000 2015,"[u'CML_VisualFeed', u'$DATA']"
Sun Jun 28 19:06:01 +0000 2015,"[u'CML_VisualFeed', u'$SCHW']"
Sun Jun 28 19:04:06 +0000 2015,"[u'CML_VisualFeed', u'$BX']"
Sun Jun 28 19:02:13 +0000 2015,"[u'CML_VisualFeed', u'$SONC']"
Sun Jun 28 18:56:20 +0000 2015,"[u'CML_VisualFeed', u'$MXWL']"
Sun Jun 28 18:56:01 +0000 2015,"[u'CML_VisualFeed', u'$VEEV']"
Sun Jun 28 18:54:24 +0000 2015,"[u'CML_VisualFeed', u'$VIPS']"
Sun Jun 28 18:53:35 +0000 2015,"[u'CML_VisualFeed', u'$URBN']"
Sun Jun 28 18:52:20 +0000 2015,"[u'CML_VisualFeed', u'$REGN']"
Sun Jun 28 18:52:00 +0000 2015,"[u'CML_VisualFeed', u'$QLYS']"
Sun Jun 28 18:50:21 +0000 2015,"[u'CML_VisualFeed', u'$VA']"
Sun Jun 28 18:50:01 +0000 2015,"[u'CML_VisualFeed', u'$LC']"
Sun Jun 28 18:48:09 +0000 2015,"[u'CML_VisualFeed', u'$KMI']"
Sun Jun 28 18:48:03 +0000 2015,"[u'CML_VisualFeed', u'$SBNY']"
Sun Jun 28 18:46:20 +0000 2015,"[u'CML_VisualFeed', u'$MOBL']"
Sun Jun 28 18:46:01 +0000 2015,"[u'CML_VisualFeed', u'$LOW']"
Sun Jun 28 19:12:06 +0000 2015,"[u'CML_VisualFeed', u'$QLYS']"
Sun Jun 28 19:10:03 +0000 2015,"[u'CML_VisualFeed', u'$YOKU']"
Sun Jun 28 19:08:19 +0000 2015,"[u'CML_VisualFeed', u'$ARMK']"
Sun Jun 28 19:08:05 +0000 2015,"[u'CML_VisualFeed', u'$HD']"
Sun Jun 28 19:06:20 +0000 2015,"[u'CML_VisualFeed', u'$DATA']"
Sun Jun 28 19:06:01 +0000 2015,"[u'CML_VisualFeed', u'$SCHW']"
Sun Jun 28 19:04:06 +0000 2015,"[u'CML_VisualFeed', u'$BX']"
Sun Jun 28 19:02:13 +0000 2015,"[u'CML_VisualFeed', u'$SONC']"
Sun Jun 28 18:56:20 +0000 2015,"[u'CML_VisualFeed', u'$MXWL']"
Sun Jun 28 18:56:01 +0000 2015,"[u'CML_VisualFeed', u'$VEEV']"
Sun Jun 28 18:54:24 +0000 2015,"[u'CML_VisualFeed', u'$VIPS']"
Sun Jun 28 18:53:35 +0000 2015,"[u'CML_VisualFeed', u'$URBN']"
Sun Jun 28 18:52:20 +0000 2015,"[u'CML_VisualFeed', u'$REGN']"
Sun Jun 28 18:52:00 +0000 2015,"[u'CML_VisualFeed', u'$QLYS']"
Sun Jun 28 18:50:21 +0000 2015,"[u'CML_VisualFeed', u'$VA']"
Sun Jun 28 18:50:01 +0000 2015,"[u'CML_VisualFeed', u'$LC']"
Sun Jun 28 18:48:09 +0000 2015,"[u'CML_VisualFeed', u'$KMI']"
Sun Jun 28 18:48:03 +0000 2015,"[u'CML_VisualFeed', u'$SBNY']"
Sun Jun 28 18:46:20 +0000 2015,"[u'CML_VisualFeed', u'$MOBL']"
Sun Jun 28 18:46:01 +0000 2015,"[u'CML_VisualFeed', u'$LOW']"
Sun Jun 28 19:12:06 +0000 2015,"[u'CML_VisualFeed', u'$QLYS']"
Sun Jun 28 19:10:03 +0000 2015,"[u'CML_VisualFeed', u'$YOKU']"
Sun Jun 28 19:08:19 +0000 2015,"[u'CML_VisualFeed', u'$ARMK']"
Sun Jun 28 19:08:05 +0000 2015,"[u'CML_VisualFeed', u'$HD']"
Sun Jun 28 19:06:20 +0000 2015,"[u'CML_VisualFeed', u'$DATA']"
Sun Jun 28 19:06:01 +0000 2015,"[u'CML_VisualFeed', u'$SCHW']"
Sun Jun 28 19:04:06 +0000 2015,"[u'CML_VisualFeed', u'$BX']"
Sun Jun 28 19:02:13 +0000 2015,"[u'CML_VisualFeed', u'$SONC']"
Sun Jun 28 18:56:20 +0000 2015,"[u'CML_VisualFeed', u'$MXWL']"
Sun Jun 28 18:56:01 +0000 2015,"[u'CML_VisualFeed', u'$VEEV']"
Sun Jun 28 18:54:24 +0000 2015,"[u'CML_VisualFeed', u'$VIPS']"
Sun Jun 28 18:53:35 +0000 2015,"[u'CML_VisualFeed', u'$URBN']"
Sun Jun 28 18:52:20 +0000 2015,"[u'CML_VisualFeed', u'$REGN']"
Sun Jun 28 18:52:00 +0000 2015,"[u'CML_VisualFeed', u'$QLYS']"
Sun Jun 28 18:50:21 +0000 2015,"[u'CML_VisualFeed', u'$VA']"
Sun Jun 28 18:50:01 +0000 2015,"[u'CML_VisualFeed', u'$LC']"
Sun Jun 28 18:48:09 +0000 2015,"[u'CML_VisualFeed', u'$KMI']"
Sun Jun 28 18:48:03 +0000 2015,"[u'CML_VisualFeed', u'$SBNY']"
Sun Jun 28 18:46:20 +0000 2015,"[u'CML_VisualFeed', u'$MOBL']"
Sun Jun 28 18:46:01 +0000 2015,"[u'CML_VisualFeed', u'$LOW']"
Sun Jun 28 19:12:06 +0000 2015,"[u'CML_VisualFeed', u'$QLYS']"
Sun Jun 28 19:10:03 +0000 2015,"[u'CML_VisualFeed', u'$YOKU']"
Sun Jun 28 19:08:19 +0000 2015,"[u'CML_VisualFeed', u'$ARMK']"
Sun Jun 28 19:08:05 +0000 2015,"[u'CML_VisualFeed', u'$HD']"
Sun Jun 28 19:06:20 +0000 2015,"[u'CML_VisualFeed', u'$DATA']"
Sun Jun 28 19:06:01 +0000 2015,"[u'CML_VisualFeed', u'$SCHW']"
Sun Jun 28 19:04:06 +0000 2015,"[u'CML_VisualFeed', u'$BX']"
Sun Jun 28 19:02:13 +0000 2015,"[u'CML_VisualFeed', u'$SONC']"
Sun Jun 28 18:56:20 +0000 2015,"[u'CML_VisualFeed', u'$MXWL']"
Sun Jun 28 18:56:01 +0000 2015,"[u'CML_VisualFeed', u'$VEEV']"
Sun Jun 28 18:54:24 +0000 2015,"[u'CML_VisualFeed', u'$VIPS']"
Sun Jun 28 18:53:35 +0000 2015,"[u'CML_VisualFeed', u'$URBN']"
Sun Jun 28 18:52:20 +0000 2015,"[u'CML_VisualFeed', u'$REGN']"
Sun Jun 28 18:52:00 +0000 2015,"[u'CML_VisualFeed', u'$QLYS']"
Sun Jun 28 18:50:21 +0000 2015,"[u'CML_VisualFeed', u'$VA']"
Sun Jun 28 18:50:01 +0000 2015,"[u'CML_VisualFeed', u'$LC']"
Sun Jun 28 18:48:09 +0000 2015,"[u'CML_VisualFeed', u'$KMI']"
Sun Jun 28 18:48:03 +0000 2015,"[u'CML_VisualFeed', u'$SBNY']"
Sun Jun 28 18:46:20 +0000 2015,"[u'CML_VisualFeed', u'$MOBL']"
Sun Jun 28 18:46:01 +0000 2015,"[u'CML_VisualFeed', u'$LOW']"
Sun Jun 28 19:12:06 +0000 2015,"[u'CML_VisualFeed', u'$QLYS']"
Sun Jun 28 19:10:03 +0000 2015,"[u'CML_VisualFeed', u'$YOKU']"
Sun Jun 28 19:08:19 +0000 2015,"[u'CML_VisualFeed', u'$ARMK']"
Sun Jun 28 19:08:05 +0000 2015,"[u'CML_VisualFeed', u'$HD']"
Sun Jun 28 19:06:20 +0000 2015,"[u'CML_VisualFeed', u'$DATA']"
Sun Jun 28 19:06:01 +0000 2015,"[u'CML_VisualFeed', u'$SCHW']"
Sun Jun 28 19:04:06 +0000 2015,"[u'CML_VisualFeed', u'$BX']"
Sun Jun 28 19:02:13 +0000 2015,"[u'CML_VisualFeed', u'$SONC']"
Sun Jun 28 18:56:20 +0000 2015,"[u'CML_VisualFeed', u'$MXWL']"
Sun Jun 28 18:56:01 +0000 2015,"[u'CML_VisualFeed', u'$VEEV']"
Sun Jun 28 18:54:24 +0000 2015,"[u'CML_VisualFeed', u'$VIPS']"
Sun Jun 28 18:53:35 +0000 2015,"[u'CML_VisualFeed', u'$URBN']"
Sun Jun 28 18:52:20 +0000 2015,"[u'CML_VisualFeed', u'$REGN']"
Sun Jun 28 18:52:00 +0000 2015,"[u'CML_VisualFeed', u'$QLYS']"
Sun Jun 28 18:50:21 +0000 2015,"[u'CML_VisualFeed', u'$VA']"
Sun Jun 28 18:50:01 +0000 2015,"[u'CML_VisualFeed', u'$LC']"
Sun Jun 28 18:48:09 +0000 2015,"[u'CML_VisualFeed', u'$KMI']"
Sun Jun 28 18:48:03 +0000 2015,"[u'CML_VisualFeed', u'$SBNY']"
Sun Jun 28 18:46:20 +0000 2015,"[u'CML_VisualFeed', u'$MOBL']"
Sun Jun 28 18:46:01 +0000 2015,"[u'CML_VisualFeed', u'$LOW']"
Sun Jun 28 01:31:12 +0000 2015,"[u'TopFlightTrades', u'$AMBA,', u'$CBM,', u'$CYBR,', u'$ELLI,', u'$PAYC,', u'$SWKS,', u'$AVGO,', u'$VDSI,', u'$MANH,', u'$VRX,', u'$CNC,', u'$GTN,', u'$FLTX,', u'$OZRK,', u'$EPAM...']"
Sun Jun 28 01:31:00 +0000 2015,"[u'TopFlightTrades', u'$AMBA,', u'$CBM,', u'$CYBR,', u'$ELLI,', u'$PAYC,', u'$SWKS,', u'$AVGO,', u'$VDSI,', u'$MANH,', u'$VRX,', u'$CNC,', u'$GTN,', u'$FLTX,', u'$OZRK,', u'$EPAM']"
Sun Jun 28 00:54:20 +0000 2015,"[u'TopFlightTrades', u'$PENN,', u'$STRZA,', u'$STL,', u'$WD,', u'$FL,', u'$CE,', u'$TPX,', u'$CYH,', u'$TCBI,', u'$LKQ,', u'$PBCT,', u'$IBKR,', u'$ROL,', u'$DPZ,', u'$COTY']"
Sun Jun 28 00:54:05 +0000 2015,"[u'TopFlightTrades', u'$PENN,', u'$STRZA,', u'$STL,', u'$WD,', u'$FL,', u'$CE,', u'$TPX,', u'$CYH,', u'$TCBI,', u'$LKQ,', u'$PBCT,', u'$IBKR,', u'$ROL,', u'$DPZ,', u'$COTY']"
Sun Jun 28 00:49:41 +0000 2015,"[u'TopFlightTrades', u'$LCI,', u'$YY,', u'$VOYA,', u'$REGN,', u'$AHS,', u'$FLTX,', u'$NHTC,', u'$DATA,', u'$QLYS,', u'$LEN,', u'$VEEV,', u'$ATHM,', u'$GPRO,', u'$NXPI,', u'$PAY...']"
Sun Jun 28 00:49:24 +0000 2015,"[u'TopFlightTrades', u'$LCI,', u'$YY,', u'$VOYA,', u'$REGN,', u'$AHS,', u'$FLTX,', u'$NHTC,', u'$DATA,', u'$QLYS,', u'$LEN,', u'$VEEV,', u'$ATHM,', u'$GPRO,', u'$NXPI,', u'$PAYC']"
Sun Jun 28 00:37:38 +0000 2015,"[u'TopFlightTrades', u'$AMBA,', u'$NHTC,', u'$CMCM,', u'$CYBR,', u'$ELLI,', u'$CNC,', u'$NTES,', u'$PANW,', u'$VDSI,', u'$VRX,', u'$AVGO,', u'$REGN,', u'$CRUS,', u'$HW']"
Sun Jun 28 00:36:49 +0000 2015,"[u'TopFlightTrades', u'$AMBA,', u'$NHTC,', u'$CMCM,', u'$CYBR,', u'$ELLI,', u'$CNC,', u'$NTES,', u'$PANW,', u'$VDSI,', u'$VRX,', u'$AVGO,', u'$REGN,', u'$CRUS,', u'$HW']"
Fri Jun 26 18:32:31 +0000 2015,"[u'TopFlightTrades', u'$WIN', u'$WIN', u'$8,820.6MM']"
Fri Jun 26 15:06:15 +0000 2015,"[u'TopFlightTrades', u'$WIN']"
Fri Jun 26 04:41:50 +0000 2015,"[u'TopFlightTrades', u'$WIN', u'$$$']"
Thu Jun 25 12:55:00 +0000 2015,"[u'TopFlightTrades', u'$TSM', u'$FFIV', u'$ARMH', u'$CMGE', u'$MCO', u'$JAZZ']"
Wed Jun 24 14:54:01 +0000 2015,"[u'TopFlightTrades', u'$132..']"
Wed Jun 24 13:56:39 +0000 2015,"[u'TopFlightTrades', u'$AAPL']"
Wed Jun 24 13:31:34 +0000 2015,"[u'TopFlightTrades', u'$AAN']"
Wed Jun 24 13:31:04 +0000 2015,"[u'TopFlightTrades', u'$DNKN']"
Wed Jun 24 13:30:41 +0000 2015,"[u'TopFlightTrades', u'$UNH']"
Sun Jun 28 01:31:12 +0000 2015,"[u'TopFlightTrades', u'$AMBA,', u'$CBM,', u'$CYBR,', u'$ELLI,', u'$PAYC,', u'$SWKS,', u'$AVGO,', u'$VDSI,', u'$MANH,', u'$VRX,', u'$CNC,', u'$GTN,', u'$FLTX,', u'$OZRK,', u'$EPAM...']"
Sun Jun 28 01:31:00 +0000 2015,"[u'TopFlightTrades', u'$AMBA,', u'$CBM,', u'$CYBR,', u'$ELLI,', u'$PAYC,', u'$SWKS,', u'$AVGO,', u'$VDSI,', u'$MANH,', u'$VRX,', u'$CNC,', u'$GTN,', u'$FLTX,', u'$OZRK,', u'$EPAM']"
Sun Jun 28 00:54:20 +0000 2015,"[u'TopFlightTrades', u'$PENN,', u'$STRZA,', u'$STL,', u'$WD,', u'$FL,', u'$CE,', u'$TPX,', u'$CYH,', u'$TCBI,', u'$LKQ,', u'$PBCT,', u'$IBKR,', u'$ROL,', u'$DPZ,', u'$COTY']"
Sun Jun 28 00:54:05 +0000 2015,"[u'TopFlightTrades', u'$PENN,', u'$STRZA,', u'$STL,', u'$WD,', u'$FL,', u'$CE,', u'$TPX,', u'$CYH,', u'$TCBI,', u'$LKQ,', u'$PBCT,', u'$IBKR,', u'$ROL,', u'$DPZ,', u'$COTY']"
Sun Jun 28 00:49:41 +0000 2015,"[u'TopFlightTrades', u'$LCI,', u'$YY,', u'$VOYA,', u'$REGN,', u'$AHS,', u'$FLTX,', u'$NHTC,', u'$DATA,', u'$QLYS,', u'$LEN,', u'$VEEV,', u'$ATHM,', u'$GPRO,', u'$NXPI,', u'$PAY...']"
Sun Jun 28 00:49:24 +0000 2015,"[u'TopFlightTrades', u'$LCI,', u'$YY,', u'$VOYA,', u'$REGN,', u'$AHS,', u'$FLTX,', u'$NHTC,', u'$DATA,', u'$QLYS,', u'$LEN,', u'$VEEV,', u'$ATHM,', u'$GPRO,', u'$NXPI,', u'$PAYC']"
Sun Jun 28 00:37:38 +0000 2015,"[u'TopFlightTrades', u'$AMBA,', u'$NHTC,', u'$CMCM,', u'$CYBR,', u'$ELLI,', u'$CNC,', u'$NTES,', u'$PANW,', u'$VDSI,', u'$VRX,', u'$AVGO,', u'$REGN,', u'$CRUS,', u'$HW']"
Sun Jun 28 00:36:49 +0000 2015,"[u'TopFlightTrades', u'$AMBA,', u'$NHTC,', u'$CMCM,', u'$CYBR,', u'$ELLI,', u'$CNC,', u'$NTES,', u'$PANW,', u'$VDSI,', u'$VRX,', u'$AVGO,', u'$REGN,', u'$CRUS,', u'$HW']"
Fri Jun 26 18:32:31 +0000 2015,"[u'TopFlightTrades', u'$WIN', u'$WIN', u'$8,820.6MM']"
Fri Jun 26 15:06:15 +0000 2015,"[u'TopFlightTrades', u'$WIN']"
Fri Jun 26 04:41:50 +0000 2015,"[u'TopFlightTrades', u'$WIN', u'$$$']"
Thu Jun 25 12:55:00 +0000 2015,"[u'TopFlightTrades', u'$TSM', u'$FFIV', u'$ARMH', u'$CMGE', u'$MCO', u'$JAZZ']"
Wed Jun 24 14:54:01 +0000 2015,"[u'TopFlightTrades', u'$132..']"
Wed Jun 24 13:56:39 +0000 2015,"[u'TopFlightTrades', u'$AAPL']"
Wed Jun 24 13:31:34 +0000 2015,"[u'TopFlightTrades', u'$AAN']"
Wed Jun 24 13:31:04 +0000 2015,"[u'TopFlightTrades', u'$DNKN']"
Wed Jun 24 13:30:41 +0000 2015,"[u'TopFlightTrades', u'$UNH']"
Sun Jun 28 19:12:06 +0000 2015,"[u'MoneyMarketzz', u'$IVAN', u'$MJWL', u'$SRC']"
Sun Jun 28 19:11:46 +0000 2015,"[u'MoneyMarketzz', u'$XIDEQ', u'$DUST', u'$FITX']"
Sun Jun 28 19:11:25 +0000 2015,"[u'MoneyMarketzz', u'$SNGX', u'$SZYM', u'$WNWG']"
Sun Jun 28 19:11:04 +0000 2015,"[u'MoneyMarketzz', u'$ETEK', u'$GALE', u'$RSOL']"
Sun Jun 28 19:10:03 +0000 2015,"[u'MoneyMarketzz', u'$STEV', u'$JNSH', u'$NWSZF']"
Sun Jun 28 12:20:24 +0000 2015,"[u'MoneyMarketzz', u'$ILVC', u'$IXMD', u'$CRCUF']"
Sun Jun 28 12:20:04 +0000 2015,"[u'MoneyMarketzz', u'$HLOSF', u'$REAL', u'$GNCP']"
Sun Jun 28 12:19:43 +0000 2015,"[u'MoneyMarketzz', u'$JBII', u'$GFSZF', u'$XCHO']"
Sun Jun 28 12:19:23 +0000 2015,"[u'MoneyMarketzz', u'$VTPI', u'$WTER', u'$XNRG']"
Sun Jun 28 12:19:01 +0000 2015,"[u'MoneyMarketzz', u'$VHGI', u'$USA', u'$VOIS']"
Sun Jun 28 12:18:33 +0000 2015,"[u'MoneyMarketzz', u'$STBV', u'$SUTI', u'$TPNI']"
Sun Jun 28 12:18:10 +0000 2015,"[u'MoneyMarketzz', u'$SAP', u'$SBRH', u'$SITS']"
Sun Jun 28 12:17:32 +0000 2015,"[u'MoneyMarketzz', u'$NVLX', u'$ONE', u'$RDSH']"
Sun Jun 28 12:17:09 +0000 2015,"[u'MoneyMarketzz', u'$IMO', u'$KGRI', u'$LOTE']"
Sun Jun 28 12:16:45 +0000 2015,"[u'MoneyMarketzz', u'$IFUS', u'$IGEX', u'$ILIV']"
Sun Jun 28 12:16:18 +0000 2015,"[u'MoneyMarketzz', u'$GFMH', u'$HAS', u'$HVYW']"
Sun Jun 28 12:15:43 +0000 2015,"[u'MoneyMarketzz', u'$EAPH', u'$ERF', u'$ERFB']"
Sun Jun 28 12:15:21 +0000 2015,"[u'MoneyMarketzz', u'$BGNN', u'$CGHC', u'$DSCR']"
Sun Jun 28 12:14:45 +0000 2015,"[u'MoneyMarketzz', u'$MRIB', u'$NBRI', u'$CRPZOur']"
Sun Jun 28 12:09:34 +0000 2015,"[u'MoneyMarketzz', u'$ISCO', u'$XUII', u'$MYEC']"
Sun Jun 28 19:12:22 +0000 2015,"[u'TheStockGuyz', u'$GWAY', u'$SKBI', u'$CBAK']"
Sun Jun 28 19:12:02 +0000 2015,"[u'TheStockGuyz', u'$GFN', u'$TGS', u'$CCSC']"
Sun Jun 28 19:11:42 +0000 2015,"[u'TheStockGuyz', u'$GEVA', u'$XRS', u'$PACD']"
Sun Jun 28 19:11:23 +0000 2015,"[u'TheStockGuyz', u'$ESLT', u'$WLL', u'$VLCCF']"
Sun Jun 28 19:11:04 +0000 2015,"[u'TheStockGuyz', u'$PCRX', u'$FULL', u'$GCAP']"
Sun Jun 28 19:10:44 +0000 2015,"[u'TheStockGuyz', u'$HESG', u'$MAKO', u'$TKMR']"
Sun Jun 28 19:10:24 +0000 2015,"[u'TheStockGuyz', u'$CTCC', u'$NZERF', u'$AAGC']"
Sun Jun 28 19:10:04 +0000 2015,"[u'TheStockGuyz', u'$TLFX', u'$CTDT', u'$FLRE']"
Sun Jun 28 19:09:43 +0000 2015,"[u'TheStockGuyz', u'$GHRI', u'$GDIMF', u'$EFTI']"
Sun Jun 28 19:09:24 +0000 2015,"[u'TheStockGuyz', u'$REVO', u'$SKYF', u'$WBXU']"
Sun Jun 28 19:09:04 +0000 2015,"[u'TheStockGuyz', u'$III', u'$IOGA', u'$NNRX']"
Sun Jun 28 19:08:45 +0000 2015,"[u'TheStockGuyz', u'$EPGG', u'$GAXCQ', u'$GOLD']"
Sun Jun 28 19:08:25 +0000 2015,"[u'TheStockGuyz', u'$SFRX', u'$NAVB', u'$ASYI']"
Sun Jun 28 19:08:04 +0000 2015,"[u'TheStockGuyz', u'$SWRF', u'$HHSE', u'$SMME']"
Sun Jun 28 19:07:44 +0000 2015,"[u'TheStockGuyz', u'$FRTD', u'$EPAZ', u'$WBSI']"
Sun Jun 28 19:07:19 +0000 2015,"[u'TheStockGuyz', u'$FASC', u'$ARIA', u'$TUCN']"
Sun Jun 28 19:06:53 +0000 2015,"[u'TheStockGuyz', u'$DRYS', u'$SGLB', u'$QASP']"
Sun Jun 28 19:06:29 +0000 2015,"[u'TheStockGuyz', u'$NHYT', u'$DUSS', u'$VPER']"
Sun Jun 28 19:06:08 +0000 2015,"[u'TheStockGuyz', u'$JCP', u'$AQUM', u'$WSGI']"
Sun Jun 28 19:05:49 +0000 2015,"[u'TheStockGuyz', u'$BORK', u'$PAWS', u'$GGSM']"
Sun Jun 28 19:12:06 +0000 2015,"[u'CML_VisualFeed', u'$QLYS']"
Sun Jun 28 19:10:03 +0000 2015,"[u'CML_VisualFeed', u'$YOKU']"
Sun Jun 28 19:08:19 +0000 2015,"[u'CML_VisualFeed', u'$ARMK']"
Sun Jun 28 19:08:05 +0000 2015,"[u'CML_VisualFeed', u'$HD']"
Sun Jun 28 19:06:20 +0000 2015,"[u'CML_VisualFeed', u'$DATA']"
Sun Jun 28 19:06:01 +0000 2015,"[u'CML_VisualFeed', u'$SCHW']"
Sun Jun 28 19:04:06 +0000 2015,"[u'CML_VisualFeed', u'$BX']"
Sun Jun 28 19:02:13 +0000 2015,"[u'CML_VisualFeed', u'$SONC']"
Sun Jun 28 18:56:20 +0000 2015,"[u'CML_VisualFeed', u'$MXWL']"
Sun Jun 28 18:56:01 +0000 2015,"[u'CML_VisualFeed', u'$VEEV']"
Sun Jun 28 18:54:24 +0000 2015,"[u'CML_VisualFeed', u'$VIPS']"
Sun Jun 28 18:53:35 +0000 2015,"[u'CML_VisualFeed', u'$URBN']"
Sun Jun 28 18:52:20 +0000 2015,"[u'CML_VisualFeed', u'$REGN']"
Sun Jun 28 18:52:00 +0000 2015,"[u'CML_VisualFeed', u'$QLYS']"
Sun Jun 28 18:50:21 +0000 2015,"[u'CML_VisualFeed', u'$VA']"
Sun Jun 28 18:50:01 +0000 2015,"[u'CML_VisualFeed', u'$LC']"
Sun Jun 28 18:48:09 +0000 2015,"[u'CML_VisualFeed', u'$KMI']"
Sun Jun 28 18:48:03 +0000 2015,"[u'CML_VisualFeed', u'$SBNY']"
Sun Jun 28 18:46:20 +0000 2015,"[u'CML_VisualFeed', u'$MOBL']"
Sun Jun 28 18:46:01 +0000 2015,"[u'CML_VisualFeed', u'$LOW']"
Sun Jun 28 19:12:01 +0000 2015,"[u'TimeForGrowth', u'$AAPL:']"
Sun Jun 28 19:10:02 +0000 2015,"[u'TimeForGrowth', u'$PII:']"
Sun Jun 28 19:08:02 +0000 2015,"[u'TimeForGrowth', u'$ZU:']"
Sun Jun 28 18:58:02 +0000 2015,"[u'TimeForGrowth', u'$AHS:']"
Sun Jun 28 18:41:02 +0000 2015,"[u'TimeForGrowth', u'$CTRP:']"
Sun Jun 28 18:38:02 +0000 2015,"[u'TimeForGrowth', u'$MAG:']"
Sun Jun 28 18:29:01 +0000 2015,"[u'TimeForGrowth', u'$GRH:']"
Sun Jun 28 18:19:02 +0000 2015,"[u'TimeForGrowth', u'$DYN:']"
Sun Jun 28 18:12:02 +0000 2015,"[u'TimeForGrowth', u'$ITEK:']"
Sun Jun 28 18:05:02 +0000 2015,"[u'TimeForGrowth', u'$WETF:']"
Sun Jun 28 18:04:03 +0000 2015,"[u'TimeForGrowth', u'$RLOC:']"
Sun Jun 28 18:00:02 +0000 2015,"[u'TimeForGrowth', u'$DHI:']"
Sun Jun 28 17:57:02 +0000 2015,"[u'TimeForGrowth', u'$MSG:']"
Sun Jun 28 17:49:01 +0000 2015,"[u'TimeForGrowth', u'$CVU:']"
Sun Jun 28 17:46:02 +0000 2015,"[u'TimeForGrowth', u'$USAK:']"
Sun Jun 28 17:44:02 +0000 2015,"[u'TimeForGrowth', u'$LAZ:']"
Sun Jun 28 17:34:01 +0000 2015,"[u'TimeForGrowth', u'$RAS:']"
Sun Jun 28 17:33:02 +0000 2015,"[u'TimeForGrowth', u'$JMP:']"
Sun Jun 28 17:28:02 +0000 2015,"[u'TimeForGrowth', u'$HBCP:']"
Sun Jun 28 17:19:02 +0000 2015,"[u'TimeForGrowth', u'$EBIO:']"
Sun Jun 28 19:12:06 +0000 2015,"[u'CML_VisualFeed', u'$QLYS']"
Sun Jun 28 19:10:03 +0000 2015,"[u'CML_VisualFeed', u'$YOKU']"
Sun Jun 28 19:08:19 +0000 2015,"[u'CML_VisualFeed', u'$ARMK']"
Sun Jun 28 19:08:05 +0000 2015,"[u'CML_VisualFeed', u'$HD']"
Sun Jun 28 19:06:20 +0000 2015,"[u'CML_VisualFeed', u'$DATA']"
Sun Jun 28 19:06:01 +0000 2015,"[u'CML_VisualFeed', u'$SCHW']"
Sun Jun 28 19:04:06 +0000 2015,"[u'CML_VisualFeed', u'$BX']"
Sun Jun 28 19:02:13 +0000 2015,"[u'CML_VisualFeed', u'$SONC']"
Sun Jun 28 18:56:20 +0000 2015,"[u'CML_VisualFeed', u'$MXWL']"
Sun Jun 28 18:56:01 +0000 2015,"[u'CML_VisualFeed', u'$VEEV']"
Sun Jun 28 18:54:24 +0000 2015,"[u'CML_VisualFeed', u'$VIPS']"
Sun Jun 28 18:53:35 +0000 2015,"[u'CML_VisualFeed', u'$URBN']"
Sun Jun 28 18:52:20 +0000 2015,"[u'CML_VisualFeed', u'$REGN']"
Sun Jun 28 18:52:00 +0000 2015,"[u'CML_VisualFeed', u'$QLYS']"
Sun Jun 28 18:50:21 +0000 2015,"[u'CML_VisualFeed', u'$VA']"
Sun Jun 28 18:50:01 +0000 2015,"[u'CML_VisualFeed', u'$LC']"
Sun Jun 28 18:48:09 +0000 2015,"[u'CML_VisualFeed', u'$KMI']"
Sun Jun 28 18:48:03 +0000 2015,"[u'CML_VisualFeed', u'$SBNY']"
Sun Jun 28 18:46:20 +0000 2015,"[u'CML_VisualFeed', u'$MOBL']"
Sun Jun 28 18:46:01 +0000 2015,"[u'CML_VisualFeed', u'$LOW']"
Sun Jun 28 19:12:06 +0000 2015,"[u'CML_VisualFeed', u'$QLYS']"
Sun Jun 28 19:10:03 +0000 2015,"[u'CML_VisualFeed', u'$YOKU']"
Sun Jun 28 19:08:19 +0000 2015,"[u'CML_VisualFeed', u'$ARMK']"
Sun Jun 28 19:08:05 +0000 2015,"[u'CML_VisualFeed', u'$HD']"
Sun Jun 28 19:06:20 +0000 2015,"[u'CML_VisualFeed', u'$DATA']"
Sun Jun 28 19:06:01 +0000 2015,"[u'CML_VisualFeed', u'$SCHW']"
Sun Jun 28 19:04:06 +0000 2015,"[u'CML_VisualFeed', u'$BX']"
Sun Jun 28 19:02:13 +0000 2015,"[u'CML_VisualFeed', u'$SONC']"
Sun Jun 28 18:56:20 +0000 2015,"[u'CML_VisualFeed', u'$MXWL']"
Sun Jun 28 18:56:01 +0000 2015,"[u'CML_VisualFeed', u'$VEEV']"
Sun Jun 28 18:54:24 +0000 2015,"[u'CML_VisualFeed', u'$VIPS']"
Sun Jun 28 18:53:35 +0000 2015,"[u'CML_VisualFeed', u'$URBN']"
Sun Jun 28 18:52:20 +0000 2015,"[u'CML_VisualFeed', u'$REGN']"
Sun Jun 28 18:52:00 +0000 2015,"[u'CML_VisualFeed', u'$QLYS']"
Sun Jun 28 18:50:21 +0000 2015,"[u'CML_VisualFeed', u'$VA']"
Sun Jun 28 18:50:01 +0000 2015,"[u'CML_VisualFeed', u'$LC']"
Sun Jun 28 18:48:09 +0000 2015,"[u'CML_VisualFeed', u'$KMI']"
Sun Jun 28 18:48:03 +0000 2015,"[u'CML_VisualFeed', u'$SBNY']"
Sun Jun 28 18:46:20 +0000 2015,"[u'CML_VisualFeed', u'$MOBL']"
Sun Jun 28 18:46:01 +0000 2015,"[u'CML_VisualFeed', u'$LOW']"
Sun Jun 28 19:06:02 +0000 2015,"[u'InvestWithConf', u'$SKX']"
Sun Jun 28 19:02:02 +0000 2015,"[u'InvestWithConf', u'$VSTM']"
Sun Jun 28 19:01:02 +0000 2015,"[u'InvestWithConf', u'$URI']"
Sun Jun 28 18:59:02 +0000 2015,"[u'InvestWithConf', u'$BDX']"
Sun Jun 28 18:54:02 +0000 2015,"[u'InvestWithConf', u'$ALKS']"
Sun Jun 28 18:51:02 +0000 2015,"[u'InvestWithConf', u'$ISRG']"
Sun Jun 28 18:49:03 +0000 2015,"[u'InvestWithConf', u'$MDLZ']"
Sun Jun 28 18:45:03 +0000 2015,"[u'InvestWithConf', u'$TWTR']"
Sun Jun 28 18:44:02 +0000 2015,"[u'InvestWithConf', u'$EMES']"
Sun Jun 28 18:39:03 +0000 2015,"[u'InvestWithConf', u'$BIN']"
Sun Jun 28 18:38:02 +0000 2015,"[u'InvestWithConf', u'$SPG']"
Sun Jun 28 18:36:02 +0000 2015,"[u'InvestWithConf', u'$ESTE']"
Sun Jun 28 18:35:02 +0000 2015,"[u'InvestWithConf', u'$BV']"
Sun Jun 28 18:32:02 +0000 2015,"[u'InvestWithConf', u'$WCN']"
Sun Jun 28 18:30:02 +0000 2015,"[u'InvestWithConf', u'$NVGS']"
Sun Jun 28 18:18:02 +0000 2015,"[u'InvestWithConf', u'$DCT']"
Sun Jun 28 18:15:02 +0000 2015,"[u'InvestWithConf', u'$BREW']"
Sun Jun 28 18:10:02 +0000 2015,"[u'InvestWithConf', u'$NVEE']"
Sun Jun 28 18:09:03 +0000 2015,"[u'InvestWithConf', u'$AFSI']"
Sun Jun 28 18:06:02 +0000 2015,"[u'InvestWithConf', u'$STX']"
Sun Jun 28 19:12:27 +0000 2015,"[u'MoneyMarketzz', u'$ANOS', u'$ACGX', u'$OWOO']"
Sun Jun 28 19:12:06 +0000 2015,"[u'MoneyMarketzz', u'$IVAN', u'$MJWL', u'$SRC']"
Sun Jun 28 19:11:46 +0000 2015,"[u'MoneyMarketzz', u'$XIDEQ', u'$DUST', u'$FITX']"
Sun Jun 28 19:11:25 +0000 2015,"[u'MoneyMarketzz', u'$SNGX', u'$SZYM', u'$WNWG']"
Sun Jun 28 19:11:04 +0000 2015,"[u'MoneyMarketzz', u'$ETEK', u'$GALE', u'$RSOL']"
Sun Jun 28 19:10:03 +0000 2015,"[u'MoneyMarketzz', u'$STEV', u'$JNSH', u'$NWSZF']"
Sun Jun 28 12:20:24 +0000 2015,"[u'MoneyMarketzz', u'$ILVC', u'$IXMD', u'$CRCUF']"
Sun Jun 28 12:20:04 +0000 2015,"[u'MoneyMarketzz', u'$HLOSF', u'$REAL', u'$GNCP']"
Sun Jun 28 12:19:43 +0000 2015,"[u'MoneyMarketzz', u'$JBII', u'$GFSZF', u'$XCHO']"
Sun Jun 28 12:19:23 +0000 2015,"[u'MoneyMarketzz', u'$VTPI', u'$WTER', u'$XNRG']"
Sun Jun 28 12:19:01 +0000 2015,"[u'MoneyMarketzz', u'$VHGI', u'$USA', u'$VOIS']"
Sun Jun 28 12:18:33 +0000 2015,"[u'MoneyMarketzz', u'$STBV', u'$SUTI', u'$TPNI']"
Sun Jun 28 12:18:10 +0000 2015,"[u'MoneyMarketzz', u'$SAP', u'$SBRH', u'$SITS']"
Sun Jun 28 12:17:32 +0000 2015,"[u'MoneyMarketzz', u'$NVLX', u'$ONE', u'$RDSH']"
Sun Jun 28 12:17:09 +0000 2015,"[u'MoneyMarketzz', u'$IMO', u'$KGRI', u'$LOTE']"
Sun Jun 28 12:16:45 +0000 2015,"[u'MoneyMarketzz', u'$IFUS', u'$IGEX', u'$ILIV']"
Sun Jun 28 12:16:18 +0000 2015,"[u'MoneyMarketzz', u'$GFMH', u'$HAS', u'$HVYW']"
Sun Jun 28 12:15:43 +0000 2015,"[u'MoneyMarketzz', u'$EAPH', u'$ERF', u'$ERFB']"
Sun Jun 28 12:15:21 +0000 2015,"[u'MoneyMarketzz', u'$BGNN', u'$CGHC', u'$DSCR']"
Sun Jun 28 12:14:45 +0000 2015,"[u'MoneyMarketzz', u'$MRIB', u'$NBRI', u'$CRPZOur']"
Sun Jun 28 19:12:16 +0000 2015,"[u'Stockfiendz', u'$MJMJ', u'$VRTX', u'$FISV', u'$CA']"
Sun Jun 28 19:11:55 +0000 2015,"[u'Stockfiendz', u'$MJMJ', u'$LINTA', u'$NTAP', u'$WDC']"
Sun Jun 28 19:11:33 +0000 2015,"[u'Stockfiendz', u'$MJMJ', u'$STX', u'$PAYX', u'$WYNN']"
Sun Jun 28 19:11:11 +0000 2015,"[u'Stockfiendz', u'$MJMJ', u'$ROST', u'$CTXS', u'$SNDK']"
Sun Jun 28 19:10:51 +0000 2015,"[u'Stockfiendz', u'$MJMJ', u'$MAT', u'$BBBY', u'$ADI']"
Sun Jun 28 19:10:32 +0000 2015,"[u'Stockfiendz', u'$MJMJ', u'$AMAT', u'$WFM', u'$FAST']"
Sun Jun 28 19:10:11 +0000 2015,"[u'Stockfiendz', u'$MJMJ', u'$SYMC', u'$CERN', u'$ATVI']"
Sun Jun 28 19:09:53 +0000 2015,"[u'Stockfiendz', u'$MJMJ', u'$ALXN', u'$PCAR', u'$REGN']"
Sun Jun 28 19:09:33 +0000 2015,"[u'Stockfiendz', u'$MJMJ', u'$INTU', u'$DISCA', u'$LBTYA']"
Sun Jun 28 19:09:12 +0000 2015,"[u'Stockfiendz', u'$MJMJ', u'$SIRI', u'$ISRG', u'$BRCM']"
Sun Jun 28 19:08:50 +0000 2015,"[u'Stockfiendz', u'$MJMJ', u'$DELL', u'$CTSH', u'$ADBE']"
Sun Jun 28 19:08:31 +0000 2015,"[u'Stockfiendz', u'$MJMJ', u'$KRFT', u'$VIAB', u'$YHOO']"
Sun Jun 28 19:08:11 +0000 2015,"[u'Stockfiendz', u'$MJMJ', u'$DTV', u'$ADP', u'$BIDU']"
Sun Jun 28 19:07:48 +0000 2015,"[u'Stockfiendz', u'$MJMJ', u'$SBUX', u'$TXN', u'$PCLN']"
Sun Jun 28 19:02:35 +0000 2015,"[u'Stockfiendz', u'$MJMJ', u'$FB', u'$MDLZ', u'$CELG']"
Sun Jun 28 19:01:19 +0000 2015,"[u'Stockfiendz', u'$MJMJ', u'$GILD', u'$NWSA', u'$EBAY']"
Sun Jun 28 19:00:26 +0000 2015,"[u'Stockfiendz', u'$MJMJ', u'$CMCSA', u'$INTC', u'$AMGN']"
Sun Jun 28 18:59:17 +0000 2015,"[u'Stockfiendz', u'$MJMJ', u'$AMZN', u'$QCOM', u'$CSCO']"
Sun Jun 28 18:53:09 +0000 2015,"[u'Stockfiendz', u'$MJMJ', u'$TRX', u'$AAPL', u'$GOOG']"
Sun Jun 28 18:52:47 +0000 2015,"[u'Stockfiendz', u'$MJMJ', u'$CHGS', u'$MCZ', u'$ATL']"
Sun Jun 28 19:12:22 +0000 2015,"[u'TheStockGuyz', u'$GWAY', u'$SKBI', u'$CBAK']"
Sun Jun 28 19:12:02 +0000 2015,"[u'TheStockGuyz', u'$GFN', u'$TGS', u'$CCSC']"
Sun Jun 28 19:11:42 +0000 2015,"[u'TheStockGuyz', u'$GEVA', u'$XRS', u'$PACD']"
Sun Jun 28 19:11:23 +0000 2015,"[u'TheStockGuyz', u'$ESLT', u'$WLL', u'$VLCCF']"
Sun Jun 28 19:11:04 +0000 2015,"[u'TheStockGuyz', u'$PCRX', u'$FULL', u'$GCAP']"
Sun Jun 28 19:10:44 +0000 2015,"[u'TheStockGuyz', u'$HESG', u'$MAKO', u'$TKMR']"
Sun Jun 28 19:10:24 +0000 2015,"[u'TheStockGuyz', u'$CTCC', u'$NZERF', u'$AAGC']"
Sun Jun 28 19:10:04 +0000 2015,"[u'TheStockGuyz', u'$TLFX', u'$CTDT', u'$FLRE']"
Sun Jun 28 19:09:43 +0000 2015,"[u'TheStockGuyz', u'$GHRI', u'$GDIMF', u'$EFTI']"
Sun Jun 28 19:09:24 +0000 2015,"[u'TheStockGuyz', u'$REVO', u'$SKYF', u'$WBXU']"
Sun Jun 28 19:09:04 +0000 2015,"[u'TheStockGuyz', u'$III', u'$IOGA', u'$NNRX']"
Sun Jun 28 19:08:45 +0000 2015,"[u'TheStockGuyz', u'$EPGG', u'$GAXCQ', u'$GOLD']"
Sun Jun 28 19:08:25 +0000 2015,"[u'TheStockGuyz', u'$SFRX', u'$NAVB', u'$ASYI']"
Sun Jun 28 19:08:04 +0000 2015,"[u'TheStockGuyz', u'$SWRF', u'$HHSE', u'$SMME']"
Sun Jun 28 19:07:44 +0000 2015,"[u'TheStockGuyz', u'$FRTD', u'$EPAZ', u'$WBSI']"
Sun Jun 28 19:07:19 +0000 2015,"[u'TheStockGuyz', u'$FASC', u'$ARIA', u'$TUCN']"
Sun Jun 28 19:06:53 +0000 2015,"[u'TheStockGuyz', u'$DRYS', u'$SGLB', u'$QASP']"
Sun Jun 28 19:06:29 +0000 2015,"[u'TheStockGuyz', u'$NHYT', u'$DUSS', u'$VPER']"
Sun Jun 28 19:06:08 +0000 2015,"[u'TheStockGuyz', u'$JCP', u'$AQUM', u'$WSGI']"
Sun Jun 28 19:05:49 +0000 2015,"[u'TheStockGuyz', u'$BORK', u'$PAWS', u'$GGSM']"
Sun Jun 28 17:16:03 +0000 2015,"[u'1SimpleTrader', u'$TWC']"
Sun Jun 28 15:42:30 +0000 2015,"[u'1SimpleTrader', u'$STUDY', u'$SPY']"
Sat Jun 27 21:42:33 +0000 2015,"[u'1SimpleTrader', u'$STUDY', u'$HRTX', u'$QQQ', u'$GREK']"
Sat Jun 27 17:48:11 +0000 2015,"[u'1SimpleTrader', u'$SPX', u'$SPY']"
Sat Jun 27 17:36:32 +0000 2015,"[u'1SimpleTrader', u'$GILD', u'$IBB', u'$XBI']"
Sat Jun 27 17:35:29 +0000 2015,"[u'1SimpleTrader', u'$AMGN']"
Sat Jun 27 17:34:12 +0000 2015,"[u'1SimpleTrader', u'$CELG']"
Sat Jun 27 17:02:29 +0000 2015,"[u'1SimpleTrader', u'$DATA']"
Sat Jun 27 16:57:39 +0000 2015,"[u'1SimpleTrader', u'$HACK', u'$FEYE', u'$CYBR', u'$PANW', u'$FTNT', u'$QLYS']"
Sat Jun 27 16:54:28 +0000 2015,"[u'1SimpleTrader', u'$IBB']"
Sat Jun 27 16:52:57 +0000 2015,"[u'1SimpleTrader', u'$PCLN']"
Sat Jun 27 16:47:55 +0000 2015,"[u'1SimpleTrader', u'$AMZN', u'$QQQ']"
Sat Jun 27 16:41:41 +0000 2015,"[u'1SimpleTrader', u'$CMG']"
Sat Jun 27 16:38:28 +0000 2015,"[u'1SimpleTrader', u'$CMG']"
Sat Jun 27 16:33:42 +0000 2015,"[u'1SimpleTrader', u'$TWTR', u'$QQQ']"
Sat Jun 27 16:31:04 +0000 2015,"[u'1SimpleTrader', u'$TWTR']"
Sat Jun 27 16:26:08 +0000 2015,"[u'1SimpleTrader', u'$AAPL']"
Sat Jun 27 16:23:18 +0000 2015,"[u'1SimpleTrader', u'$GOOGL']"
Sat Jun 27 16:20:19 +0000 2015,"[u'1SimpleTrader', u'$FB']"
Sun Jun 28 13:58:07 +0000 2015,"[u'securitymanag_a', u'$100']"
Sun Jun 28 10:53:06 +0000 2015,"[u'securitymanag_a', u'$18']"
Sun Jun 28 16:39:47 +0000 2015,"[u'WKRBNews', u'$21.25', u'$SUPN']"
Sun Jun 28 16:39:46 +0000 2015,"[u'WKRBNews', u'$CSAL']"
Sun Jun 28 16:39:46 +0000 2015,"[u'WKRBNews', u'$EQGP']"
Sun Jun 28 16:39:45 +0000 2015,"[u'WKRBNews', u'$58.71', u'$MPWR']"
Sun Jun 28 16:39:45 +0000 2015,"[u'WKRBNews', u'$SFUN']"
Sun Jun 28 16:39:44 +0000 2015,"[u'WKRBNews', u'$CLI']"
Sun Jun 28 16:39:44 +0000 2015,"[u'WKRBNews', u'$67.80', u'$GBX']"
Sun Jun 28 16:23:14 +0000 2015,"[u'WKRBNews', u'$FUEL']"
Sun Jun 28 16:23:13 +0000 2015,"[u'WKRBNews', u'$100.00', u'$ASML']"
Sun Jun 28 16:23:13 +0000 2015,"[u'WKRBNews', u'$22.71', u'$SDRL']"
Sun Jun 28 16:07:14 +0000 2015,"[u'WKRBNews', u'$STZ']"
Sun Jun 28 16:07:14 +0000 2015,"[u'WKRBNews', u'$EURN']"
Sun Jun 28 16:07:14 +0000 2015,"[u'WKRBNews', u'$HMSY']"
Sun Jun 28 16:07:13 +0000 2015,"[u'WKRBNews', u'$70.14', u'$IART']"
Sun Jun 28 16:07:13 +0000 2015,"[u'WKRBNews', u'$58.19', u'$NBL']"
Sun Jun 28 16:07:13 +0000 2015,"[u'WKRBNews', u'$DRE']"
Sun Jun 28 16:07:12 +0000 2015,"[u'WKRBNews', u'$EL']"
Sun Jun 28 15:51:44 +0000 2015,"[u'WKRBNews', u'$37.29', u'$KATE']"
Sun Jun 28 15:51:44 +0000 2015,"[u'WKRBNews', u'$WFR']"
Sun Jun 28 19:04:06 +0000 2015,"[u'ProTradersNews', u'$DL:']"
Sun Jun 28 19:04:06 +0000 2015,"[u'ProTradersNews', u'$SODA:']"
Sun Jun 28 19:04:06 +0000 2015,"[u'ProTradersNews', u'$VLY:']"
Sun Jun 28 19:04:05 +0000 2015,"[u'ProTradersNews', u'$UMBF:']"
Sun Jun 28 18:59:04 +0000 2015,"[u'ProTradersNews', u'$WMB:']"
Sun Jun 28 18:59:03 +0000 2015,"[u'ProTradersNews', u'$BMY:']"
Sun Jun 28 18:59:02 +0000 2015,"[u'ProTradersNews', u'$FOX:']"
Sun Jun 28 18:54:04 +0000 2015,"[u'ProTradersNews', u'$ICFI:']"
Sun Jun 28 18:49:02 +0000 2015,"[u'ProTradersNews', u'$AVY:']"
Sun Jun 28 18:44:05 +0000 2015,"[u'ProTradersNews', u'$OC:']"
Sun Jun 28 18:44:05 +0000 2015,"[u'ProTradersNews', u'$VA:']"
Sun Jun 28 18:44:05 +0000 2015,"[u'ProTradersNews', u'$FIVN:']"
Sun Jun 28 18:44:04 +0000 2015,"[u'ProTradersNews', u'$HPQ:']"
Sun Jun 28 18:44:03 +0000 2015,"[u'ProTradersNews', u'$MBI:']"
Sun Jun 28 18:44:03 +0000 2015,"[u'ProTradersNews', u'$CHK:']"
Sun Jun 28 18:44:02 +0000 2015,"[u'ProTradersNews', u'$VZ:']"
Sun Jun 28 18:29:04 +0000 2015,"[u'ProTradersNews', u'$STRZA:']"
Sun Jun 28 18:29:03 +0000 2015,"[u'ProTradersNews', u'$AXAS:']"
Sun Jun 28 18:19:04 +0000 2015,"[u'ProTradersNews', u'$TXN:']"
Sun Jun 28 18:19:04 +0000 2015,"[u'ProTradersNews', u'$EIGI:']"
Sun Jun 28 16:34:49 +0000 2015,"[u'MosaicGuys', u'$21.25']"
Sun Jun 28 16:26:43 +0000 2015,"[u'MosaicGuys', u'$58.71']"
Sun Jun 28 16:26:43 +0000 2015,"[u'MosaicGuys', u'$67.80']"
Sun Jun 28 16:19:44 +0000 2015,"[u'MosaicGuys', u'$100.00']"
Sun Jun 28 16:19:35 +0000 2015,"[u'MosaicGuys', u'$22.71']"
Sun Jun 28 16:07:57 +0000 2015,"[u'MosaicGuys', u'$70.14']"
Sun Jun 28 16:07:54 +0000 2015,"[u'MosaicGuys', u'$58.19']"
Sun Jun 28 15:40:51 +0000 2015,"[u'bust', u'$58.00']"
Sun Jun 28 14:38:03 +0000 2015,"[u'bust', u'$16.43']"
Sun Jun 28 12:30:51 +0000 2015,"[u'bust', u'$0.17']"
Sun Jun 28 19:12:06 +0000 2015,"[u'CML_VisualFeed', u'$QLYS']"
Sun Jun 28 19:10:03 +0000 2015,"[u'CML_VisualFeed', u'$YOKU']"
Sun Jun 28 19:08:19 +0000 2015,"[u'CML_VisualFeed', u'$ARMK']"
Sun Jun 28 19:08:05 +0000 2015,"[u'CML_VisualFeed', u'$HD']"
Sun Jun 28 19:06:20 +0000 2015,"[u'CML_VisualFeed', u'$DATA']"
Sun Jun 28 19:06:01 +0000 2015,"[u'CML_VisualFeed', u'$SCHW']"
Sun Jun 28 19:04:06 +0000 2015,"[u'CML_VisualFeed', u'$BX']"
Sun Jun 28 19:02:13 +0000 2015,"[u'CML_VisualFeed', u'$SONC']"
Sun Jun 28 18:56:20 +0000 2015,"[u'CML_VisualFeed', u'$MXWL']"
Sun Jun 28 18:56:01 +0000 2015,"[u'CML_VisualFeed', u'$VEEV']"
Sun Jun 28 18:54:24 +0000 2015,"[u'CML_VisualFeed', u'$VIPS']"
Sun Jun 28 18:53:35 +0000 2015,"[u'CML_VisualFeed', u'$URBN']"
Sun Jun 28 18:52:20 +0000 2015,"[u'CML_VisualFeed', u'$REGN']"
Sun Jun 28 18:52:00 +0000 2015,"[u'CML_VisualFeed', u'$QLYS']"
Sun Jun 28 18:50:21 +0000 2015,"[u'CML_VisualFeed', u'$VA']"
Sun Jun 28 18:50:01 +0000 2015,"[u'CML_VisualFeed', u'$LC']"
Sun Jun 28 18:48:09 +0000 2015,"[u'CML_VisualFeed', u'$KMI']"
Sun Jun 28 18:48:03 +0000 2015,"[u'CML_VisualFeed', u'$SBNY']"
Sun Jun 28 18:46:20 +0000 2015,"[u'CML_VisualFeed', u'$MOBL']"
Sun Jun 28 18:46:01 +0000 2015,"[u'CML_VisualFeed', u'$LOW']"
Sun Jun 28 19:12:06 +0000 2015,"[u'CML_VisualFeed', u'$QLYS']"
Sun Jun 28 19:10:03 +0000 2015,"[u'CML_VisualFeed', u'$YOKU']"
Sun Jun 28 19:08:19 +0000 2015,"[u'CML_VisualFeed', u'$ARMK']"
Sun Jun 28 19:08:05 +0000 2015,"[u'CML_VisualFeed', u'$HD']"
Sun Jun 28 19:06:20 +0000 2015,"[u'CML_VisualFeed', u'$DATA']"
Sun Jun 28 19:06:01 +0000 2015,"[u'CML_VisualFeed', u'$SCHW']"
Sun Jun 28 19:04:06 +0000 2015,"[u'CML_VisualFeed', u'$BX']"
Sun Jun 28 19:02:13 +0000 2015,"[u'CML_VisualFeed', u'$SONC']"
Sun Jun 28 18:56:20 +0000 2015,"[u'CML_VisualFeed', u'$MXWL']"
Sun Jun 28 18:56:01 +0000 2015,"[u'CML_VisualFeed', u'$VEEV']"
Sun Jun 28 18:54:24 +0000 2015,"[u'CML_VisualFeed', u'$VIPS']"
Sun Jun 28 18:53:35 +0000 2015,"[u'CML_VisualFeed', u'$URBN']"
Sun Jun 28 18:52:20 +0000 2015,"[u'CML_VisualFeed', u'$REGN']"
Sun Jun 28 18:52:00 +0000 2015,"[u'CML_VisualFeed', u'$QLYS']"
Sun Jun 28 18:50:21 +0000 2015,"[u'CML_VisualFeed', u'$VA']"
Sun Jun 28 18:50:01 +0000 2015,"[u'CML_VisualFeed', u'$LC']"
Sun Jun 28 18:48:09 +0000 2015,"[u'CML_VisualFeed', u'$KMI']"
Sun Jun 28 18:48:03 +0000 2015,"[u'CML_VisualFeed', u'$SBNY']"
Sun Jun 28 18:46:20 +0000 2015,"[u'CML_VisualFeed', u'$MOBL']"
Sun Jun 28 18:46:01 +0000 2015,"[u'CML_VisualFeed', u'$LOW']"
Sun Jun 28 19:12:01 +0000 2015,"[u'TimeForGrowth', u'$AAPL:']"
Sun Jun 28 19:10:02 +0000 2015,"[u'TimeForGrowth', u'$PII:']"
Sun Jun 28 19:08:02 +0000 2015,"[u'TimeForGrowth', u'$ZU:']"
Sun Jun 28 18:58:02 +0000 2015,"[u'TimeForGrowth', u'$AHS:']"
Sun Jun 28 18:41:02 +0000 2015,"[u'TimeForGrowth', u'$CTRP:']"
Sun Jun 28 18:38:02 +0000 2015,"[u'TimeForGrowth', u'$MAG:']"
Sun Jun 28 18:29:01 +0000 2015,"[u'TimeForGrowth', u'$GRH:']"
Sun Jun 28 18:19:02 +0000 2015,"[u'TimeForGrowth', u'$DYN:']"
Sun Jun 28 18:12:02 +0000 2015,"[u'TimeForGrowth', u'$ITEK:']"
Sun Jun 28 18:05:02 +0000 2015,"[u'TimeForGrowth', u'$WETF:']"
Sun Jun 28 18:04:03 +0000 2015,"[u'TimeForGrowth', u'$RLOC:']"
Sun Jun 28 18:00:02 +0000 2015,"[u'TimeForGrowth', u'$DHI:']"
Sun Jun 28 17:57:02 +0000 2015,"[u'TimeForGrowth', u'$MSG:']"
Sun Jun 28 17:49:01 +0000 2015,"[u'TimeForGrowth', u'$CVU:']"
Sun Jun 28 17:46:02 +0000 2015,"[u'TimeForGrowth', u'$USAK:']"
Sun Jun 28 17:44:02 +0000 2015,"[u'TimeForGrowth', u'$LAZ:']"
Sun Jun 28 17:34:01 +0000 2015,"[u'TimeForGrowth', u'$RAS:']"
Sun Jun 28 17:33:02 +0000 2015,"[u'TimeForGrowth', u'$JMP:']"
Sun Jun 28 17:28:02 +0000 2015,"[u'TimeForGrowth', u'$HBCP:']"
Sun Jun 28 17:19:02 +0000 2015,"[u'TimeForGrowth', u'$EBIO:']"
Sun Jun 28 19:12:06 +0000 2015,"[u'CML_VisualFeed', u'$QLYS']"
Sun Jun 28 19:10:03 +0000 2015,"[u'CML_VisualFeed', u'$YOKU']"
Sun Jun 28 19:08:19 +0000 2015,"[u'CML_VisualFeed', u'$ARMK']"
Sun Jun 28 19:08:05 +0000 2015,"[u'CML_VisualFeed', u'$HD']"
Sun Jun 28 19:06:20 +0000 2015,"[u'CML_VisualFeed', u'$DATA']"
Sun Jun 28 19:06:01 +0000 2015,"[u'CML_VisualFeed', u'$SCHW']"
Sun Jun 28 19:04:06 +0000 2015,"[u'CML_VisualFeed', u'$BX']"
Sun Jun 28 19:02:13 +0000 2015,"[u'CML_VisualFeed', u'$SONC']"
Sun Jun 28 18:56:20 +0000 2015,"[u'CML_VisualFeed', u'$MXWL']"
Sun Jun 28 18:56:01 +0000 2015,"[u'CML_VisualFeed', u'$VEEV']"
Sun Jun 28 18:54:24 +0000 2015,"[u'CML_VisualFeed', u'$VIPS']"
Sun Jun 28 18:53:35 +0000 2015,"[u'CML_VisualFeed', u'$URBN']"
Sun Jun 28 18:52:20 +0000 2015,"[u'CML_VisualFeed', u'$REGN']"
Sun Jun 28 18:52:00 +0000 2015,"[u'CML_VisualFeed', u'$QLYS']"
Sun Jun 28 18:50:21 +0000 2015,"[u'CML_VisualFeed', u'$VA']"
Sun Jun 28 18:50:01 +0000 2015,"[u'CML_VisualFeed', u'$LC']"
Sun Jun 28 18:48:09 +0000 2015,"[u'CML_VisualFeed', u'$KMI']"
Sun Jun 28 18:48:03 +0000 2015,"[u'CML_VisualFeed', u'$SBNY']"
Sun Jun 28 18:46:20 +0000 2015,"[u'CML_VisualFeed', u'$MOBL']"
Sun Jun 28 18:46:01 +0000 2015,"[u'CML_VisualFeed', u'$LOW']"
Sun Jun 28 18:52:42 +0000 2015,"[u'bosocial', u'$NBG', u'$BABA', u'$PSX', u'$BIB']"
Sun Jun 28 18:52:41 +0000 2015,"[u'bosocial', u'$JNJ', u'$IJR', u'$JNJ', u'$DUST']"
Sun Jun 28 18:52:39 +0000 2015,"[u'bosocial', u'$GTMM']"
Sun Jun 28 18:48:36 +0000 2015,"[u'bosocial', u'$NBG', u'$BABA', u'$PSX', u'$BIB']"
Sun Jun 28 18:48:35 +0000 2015,"[u'bosocial', u'$NEM', u'$AAPL', u'$GOOG', u'$HZNP']"
Sun Jun 28 18:48:35 +0000 2015,"[u'bosocial', u'$MU', u'$MG.TO', u'$HJOE', u'$LLY']"
Sun Jun 28 18:48:35 +0000 2015,"[u'bosocial', u'$MDY', u'$PWRD', u'$GS', u'$PFPT']"
Sun Jun 28 18:48:34 +0000 2015,"[u'bosocial', u'$IWM', u'$ATVI', u'$AMBA', u'$BIB']"
Sun Jun 28 18:48:34 +0000 2015,"[u'bosocial', u'$JNJ', u'$IJR', u'$JNJ', u'$DUST']"
Sun Jun 28 18:48:34 +0000 2015,"[u'bosocial', u'$INOV', u'$FTR', u'$ASHR', u'$MPC']"
Sun Jun 28 18:48:33 +0000 2015,"[u'bosocial', u'$IMH', u'$PFPT', u'$MCD', u'$IDTI']"
Sun Jun 28 18:48:33 +0000 2015,"[u'bosocial', u'$HZNP', u'$SIRGQ', u'$LXRX', u'$BIIB']"
Sun Jun 28 18:48:33 +0000 2015,"[u'bosocial', u'$GTMM']"
Sun Jun 28 18:48:32 +0000 2015,"[u'bosocial', u'$GTMM']"
Sun Jun 28 18:48:32 +0000 2015,"[u'bosocial', u'$GTMM']"
Sun Jun 28 18:48:32 +0000 2015,"[u'bosocial', u'$GDX', u'$BAC', u'$SIRGQ', u'$NCOM']"
Sun Jun 28 18:48:31 +0000 2015,"[u'bosocial', u'$CSCO', u'$GLD', u'$XLY', u'$USO']"
Sun Jun 28 18:48:31 +0000 2015,"[u'bosocial', u'$BTE.TO', u'$PFPT', u'$BABA', u'$FXI']"
Sun Jun 28 18:48:30 +0000 2015,"[u'bosocial', u'$APPF', u'$DO', u'$PGJ', u'$TRX', u'$SLV']"
Sun Jun 28 19:12:06 +0000 2015,"[u'CML_VisualFeed', u'$QLYS']"
Sun Jun 28 19:10:03 +0000 2015,"[u'CML_VisualFeed', u'$YOKU']"
Sun Jun 28 19:08:19 +0000 2015,"[u'CML_VisualFeed', u'$ARMK']"
Sun Jun 28 19:08:05 +0000 2015,"[u'CML_VisualFeed', u'$HD']"
Sun Jun 28 19:06:20 +0000 2015,"[u'CML_VisualFeed', u'$DATA']"
Sun Jun 28 19:06:01 +0000 2015,"[u'CML_VisualFeed', u'$SCHW']"
Sun Jun 28 19:04:06 +0000 2015,"[u'CML_VisualFeed', u'$BX']"
Sun Jun 28 19:02:13 +0000 2015,"[u'CML_VisualFeed', u'$SONC']"
Sun Jun 28 18:56:20 +0000 2015,"[u'CML_VisualFeed', u'$MXWL']"
Sun Jun 28 18:56:01 +0000 2015,"[u'CML_VisualFeed', u'$VEEV']"
Sun Jun 28 18:54:24 +0000 2015,"[u'CML_VisualFeed', u'$VIPS']"
Sun Jun 28 18:53:35 +0000 2015,"[u'CML_VisualFeed', u'$URBN']"
Sun Jun 28 18:52:20 +0000 2015,"[u'CML_VisualFeed', u'$REGN']"
Sun Jun 28 18:52:00 +0000 2015,"[u'CML_VisualFeed', u'$QLYS']"
Sun Jun 28 18:50:21 +0000 2015,"[u'CML_VisualFeed', u'$VA']"
Sun Jun 28 18:50:01 +0000 2015,"[u'CML_VisualFeed', u'$LC']"
Sun Jun 28 18:48:09 +0000 2015,"[u'CML_VisualFeed', u'$KMI']"
Sun Jun 28 18:48:03 +0000 2015,"[u'CML_VisualFeed', u'$SBNY']"
Sun Jun 28 18:46:20 +0000 2015,"[u'CML_VisualFeed', u'$MOBL']"
Sun Jun 28 18:46:01 +0000 2015,"[u'CML_VisualFeed', u'$LOW']"
Sun Jun 28 19:12:06 +0000 2015,"[u'CML_VisualFeed', u'$QLYS']"
Sun Jun 28 19:10:03 +0000 2015,"[u'CML_VisualFeed', u'$YOKU']"
Sun Jun 28 19:08:19 +0000 2015,"[u'CML_VisualFeed', u'$ARMK']"
Sun Jun 28 19:08:05 +0000 2015,"[u'CML_VisualFeed', u'$HD']"
Sun Jun 28 19:06:20 +0000 2015,"[u'CML_VisualFeed', u'$DATA']"
Sun Jun 28 19:06:01 +0000 2015,"[u'CML_VisualFeed', u'$SCHW']"
Sun Jun 28 19:04:06 +0000 2015,"[u'CML_VisualFeed', u'$BX']"
Sun Jun 28 19:02:13 +0000 2015,"[u'CML_VisualFeed', u'$SONC']"
Sun Jun 28 18:56:20 +0000 2015,"[u'CML_VisualFeed', u'$MXWL']"
Sun Jun 28 18:56:01 +0000 2015,"[u'CML_VisualFeed', u'$VEEV']"
Sun Jun 28 18:54:24 +0000 2015,"[u'CML_VisualFeed', u'$VIPS']"
Sun Jun 28 18:53:35 +0000 2015,"[u'CML_VisualFeed', u'$URBN']"
Sun Jun 28 18:52:20 +0000 2015,"[u'CML_VisualFeed', u'$REGN']"
Sun Jun 28 18:52:00 +0000 2015,"[u'CML_VisualFeed', u'$QLYS']"
Sun Jun 28 18:50:21 +0000 2015,"[u'CML_VisualFeed', u'$VA']"
Sun Jun 28 18:50:01 +0000 2015,"[u'CML_VisualFeed', u'$LC']"
Sun Jun 28 18:48:09 +0000 2015,"[u'CML_VisualFeed', u'$KMI']"
Sun Jun 28 18:48:03 +0000 2015,"[u'CML_VisualFeed', u'$SBNY']"
Sun Jun 28 18:46:20 +0000 2015,"[u'CML_VisualFeed', u'$MOBL']"
Sun Jun 28 18:46:01 +0000 2015,"[u'CML_VisualFeed', u'$LOW']"
Sun Jun 28 19:12:06 +0000 2015,"[u'CML_VisualFeed', u'$QLYS']"
Sun Jun 28 19:10:03 +0000 2015,"[u'CML_VisualFeed', u'$YOKU']"
Sun Jun 28 19:08:19 +0000 2015,"[u'CML_VisualFeed', u'$ARMK']"
Sun Jun 28 19:08:05 +0000 2015,"[u'CML_VisualFeed', u'$HD']"
Sun Jun 28 19:06:20 +0000 2015,"[u'CML_VisualFeed', u'$DATA']"
Sun Jun 28 19:06:01 +0000 2015,"[u'CML_VisualFeed', u'$SCHW']"
Sun Jun 28 19:04:06 +0000 2015,"[u'CML_VisualFeed', u'$BX']"
Sun Jun 28 19:02:13 +0000 2015,"[u'CML_VisualFeed', u'$SONC']"
Sun Jun 28 18:56:20 +0000 2015,"[u'CML_VisualFeed', u'$MXWL']"
Sun Jun 28 18:56:01 +0000 2015,"[u'CML_VisualFeed', u'$VEEV']"
Sun Jun 28 18:54:24 +0000 2015,"[u'CML_VisualFeed', u'$VIPS']"
Sun Jun 28 18:53:35 +0000 2015,"[u'CML_VisualFeed', u'$URBN']"
Sun Jun 28 18:52:20 +0000 2015,"[u'CML_VisualFeed', u'$REGN']"
Sun Jun 28 18:52:00 +0000 2015,"[u'CML_VisualFeed', u'$QLYS']"
Sun Jun 28 18:50:21 +0000 2015,"[u'CML_VisualFeed', u'$VA']"
Sun Jun 28 18:50:01 +0000 2015,"[u'CML_VisualFeed', u'$LC']"
Sun Jun 28 18:48:09 +0000 2015,"[u'CML_VisualFeed', u'$KMI']"
Sun Jun 28 18:48:03 +0000 2015,"[u'CML_VisualFeed', u'$SBNY']"
Sun Jun 28 18:46:20 +0000 2015,"[u'CML_VisualFeed', u'$MOBL']"
Sun Jun 28 18:46:01 +0000 2015,"[u'CML_VisualFeed', u'$LOW']"
Sun Jun 28 19:12:22 +0000 2015,"[u'TheStockGuyz', u'$GWAY', u'$SKBI', u'$CBAK']"
Sun Jun 28 19:12:02 +0000 2015,"[u'TheStockGuyz', u'$GFN', u'$TGS', u'$CCSC']"
Sun Jun 28 19:11:42 +0000 2015,"[u'TheStockGuyz', u'$GEVA', u'$XRS', u'$PACD']"
Sun Jun 28 19:11:23 +0000 2015,"[u'TheStockGuyz', u'$ESLT', u'$WLL', u'$VLCCF']"
Sun Jun 28 19:11:04 +0000 2015,"[u'TheStockGuyz', u'$PCRX', u'$FULL', u'$GCAP']"
Sun Jun 28 19:10:44 +0000 2015,"[u'TheStockGuyz', u'$HESG', u'$MAKO', u'$TKMR']"
Sun Jun 28 19:10:24 +0000 2015,"[u'TheStockGuyz', u'$CTCC', u'$NZERF', u'$AAGC']"
Sun Jun 28 19:10:04 +0000 2015,"[u'TheStockGuyz', u'$TLFX', u'$CTDT', u'$FLRE']"
Sun Jun 28 19:09:43 +0000 2015,"[u'TheStockGuyz', u'$GHRI', u'$GDIMF', u'$EFTI']"
Sun Jun 28 19:09:24 +0000 2015,"[u'TheStockGuyz', u'$REVO', u'$SKYF', u'$WBXU']"
Sun Jun 28 19:09:04 +0000 2015,"[u'TheStockGuyz', u'$III', u'$IOGA', u'$NNRX']"
Sun Jun 28 19:08:45 +0000 2015,"[u'TheStockGuyz', u'$EPGG', u'$GAXCQ', u'$GOLD']"
Sun Jun 28 19:08:25 +0000 2015,"[u'TheStockGuyz', u'$SFRX', u'$NAVB', u'$ASYI']"
Sun Jun 28 19:08:04 +0000 2015,"[u'TheStockGuyz', u'$SWRF', u'$HHSE', u'$SMME']"
Sun Jun 28 19:07:44 +0000 2015,"[u'TheStockGuyz', u'$FRTD', u'$EPAZ', u'$WBSI']"
Sun Jun 28 19:07:19 +0000 2015,"[u'TheStockGuyz', u'$FASC', u'$ARIA', u'$TUCN']"
Sun Jun 28 19:06:53 +0000 2015,"[u'TheStockGuyz', u'$DRYS', u'$SGLB', u'$QASP']"
Sun Jun 28 19:06:29 +0000 2015,"[u'TheStockGuyz', u'$NHYT', u'$DUSS', u'$VPER']"
Sun Jun 28 19:06:08 +0000 2015,"[u'TheStockGuyz', u'$JCP', u'$AQUM', u'$WSGI']"
Sun Jun 28 19:05:49 +0000 2015,"[u'TheStockGuyz', u'$BORK', u'$PAWS', u'$GGSM']"
Sun Jun 28 19:00:57 +0000 2015,"[u'St0ckReviews', u'$GENE', u'$XON', u'$OLN', u'$CRMD', u'$CTP', u'$GLOB']"
Sun Jun 28 18:47:28 +0000 2015,"[u'St0ckReviews', u'$LOW', u'$PTRY', u'$DBO', u'$FUEL']"
Sun Jun 28 18:03:27 +0000 2015,"[u'St0ckReviews', u'$CMT', u'$SPEX', u'$VLTC']"
Sun Jun 28 17:59:28 +0000 2015,"[u'St0ckReviews', u'$EWH', u'$XLP', u'$DST', u'$AREX']"
Sun Jun 28 17:22:28 +0000 2015,"[u'St0ckReviews', u'$BLUE', u'$TRIL', u'$CELG']"
Sun Jun 28 17:14:27 +0000 2015,"[u'St0ckReviews', u'$150K', u'$CYBR', u'$HURC', u'$SPEX']"
Sun Jun 28 17:04:27 +0000 2015,"[u'St0ckReviews', u'$JNUG', u'$JDST', u'$ACAD', u'$GDXJ', u'$BBRY']"
Sun Jun 28 15:49:34 +0000 2015,"[u'St0ckReviews', u'$9700', u'$330,000', u'$QIHU', u'$NWBO', u'$ZIOP', u'$EYES']"
Sun Jun 28 14:49:26 +0000 2015,"[u'St0ckReviews', u'$NHTC', u'$NPTN', u'$TRIL', u'$CLDN']"
Sun Jun 28 14:37:26 +0000 2015,"[u'St0ckReviews', u'$HA', u'$ALK', u'$STUDY', u'$TWTR', u'$YHOO']"
Sun Jun 28 13:38:29 +0000 2015,"[u'St0ckReviews', u'$WFM', u'$UNH', u'$CLDX', u'$FXE', u'$NVAX', u'$EGO']"
Sun Jun 28 13:37:26 +0000 2015,"[u'St0ckReviews', u'$BIIB', u'$CELG', u'$VALE', u'$TRN', u'$EMES']"
Sun Jun 28 12:37:29 +0000 2015,"[u'St0ckReviews', u'$GEVO', u'$RMGN', u'$REPH', u'$STRL', u'$AST', u'$NPTN', u'$MM', u'$CRMD', u'$BIOC', u'$GST']"
Sun Jun 28 11:37:28 +0000 2015,"[u'St0ckReviews', u'$CYBR']"
Sun Jun 28 10:36:28 +0000 2015,"[u'St0ckReviews', u'$NUGT', u'$QIHU', u'$URBN', u'$SPY', u'$INTC']"
Sun Jun 28 09:36:28 +0000 2015,"[u'St0ckReviews', u'$NTRI', u'$LL', u'$MYL', u'$AZO', u'$SGY']"
Sun Jun 28 08:51:27 +0000 2015,"[u'St0ckReviews', u'$EYES', u'$NVEE', u'$LIVE', u'$BDR']"
Sun Jun 28 08:36:29 +0000 2015,"[u'St0ckReviews', u'$ARIA', u'$BBRY', u'$DSKY', u'$SGEN', u'$XONE']"
Sun Jun 28 08:18:28 +0000 2015,"[u'St0ckReviews', u'$STUDY', u'$GENE', u'$LIVE', u'$hurc', u'$vltc']"
Sat Jun 27 12:26:46 +0000 2015,"[u'Yourpersonaltr1', u'$QTWO', u'$NHTC', u'$CYBR', u'$HACK', u'$JPM', u'$LXFT', u'$QNET']"
Fri Jun 26 22:59:20 +0000 2015,"[u'Yourpersonaltr1', u'$VDSI', u'$FEYE', u'$CYBR', u'$QLYS', u'$LXFT']"
Fri Jun 26 17:08:36 +0000 2015,"[u'Yourpersonaltr1', u'$QNET', u'$QQQ', u'$IWM']"
Fri Jun 26 16:26:38 +0000 2015,"[u'Yourpersonaltr1', u'$60+', u'$LXFT', u'$SPY', u'$IWM']"
Fri Jun 26 16:00:37 +0000 2015,"[u'Yourpersonaltr1', u'$VDSI', u'$FEYE', u'$CYBR', u'$QLYS', u'$LXFT', u'$QTWO']"
Fri Jun 26 14:29:05 +0000 2015,"[u'Yourpersonaltr1', u'$QTWO', u'$NHTC', u'$IWM', u'$SPY', u'$IWM']"
Fri Jun 26 14:01:03 +0000 2015,"[u'Yourpersonaltr1', u'$LXFT', u'$SPY', u'$IWM']"
Fri Jun 26 00:12:30 +0000 2015,"[u'Yourpersonaltr1', u'$MEI!', u'$TSLA', u'$20,', u'$SPY', u'$IWM']"
Thu Jun 25 22:09:58 +0000 2015,"[u'Yourpersonaltr1', u'$QTWO', u'$NHTC', u'$IWM']"
Thu Jun 25 11:30:35 +0000 2015,"[u'Yourpersonaltr1', u'$SPY', u'$IWM']"
Thu Jun 25 10:41:16 +0000 2015,"[u'Yourpersonaltr1', u'$NHTC', u'$NVRO', u'$NFLX']"
Thu Jun 25 03:08:30 +0000 2015,"[u'Yourpersonaltr1', u'$HACK..POP', u'$NFLX', u'$NOW', u'$FEYE', u'$PAYC', u'$QLYS', u'$CYBR', u'$N', u'$DATA']"
Wed Jun 24 21:27:47 +0000 2015,"[u'Yourpersonaltr1', u'$SPY', u'$QQQ', u'$IWM', u'$NVRO', u'$NHTC']"
Wed Jun 24 12:59:04 +0000 2015,"[u'Yourpersonaltr1', u'$QNET', u'$FDN', u'$PNQI', u'$FB', u'$AMZN', u'$NFLX', u'$GOOG', u'$PCLN']"
Tue Jun 23 23:55:02 +0000 2015,"[u'Yourpersonaltr1', u'$AMBA', u'$NTES', u'$FB', u'$Z', u'$GPRO', u'$TSLA', u'$GWRE', u'$AMZN']"
Tue Jun 23 20:54:08 +0000 2015,"[u'Yourpersonaltr1', u'$QNET', u'$SPY', u'$QQQ', u'$IWM', u'$FB']"
Tue Jun 23 19:54:59 +0000 2015,"[u'Yourpersonaltr1', u'$NVRO', u'$IBB', u'$ILMN']"
Tue Jun 23 18:49:55 +0000 2015,"[u'Yourpersonaltr1', u'$QNET', u'$SPY', u'$QQQ', u'$IWM', u'$FB']"
Tue Jun 23 16:02:20 +0000 2015,"[u'Yourpersonaltr1', u'$QNET', u'$SPY', u'$QQQ', u'$IWM', u'$FB']"
Tue Jun 23 12:50:16 +0000 2015,"[u'Yourpersonaltr1', u'$BLUE', u'$HUBS', u'$CTRP', u'$FB', u'$NFLX', u'$UA', u'$VDSI', u'$VRX', u'$CSTE', u'$PAYC']"
Sun Jun 28 19:12:06 +0000 2015,"[u'CML_VisualFeed', u'$QLYS']"
Sun Jun 28 19:10:03 +0000 2015,"[u'CML_VisualFeed', u'$YOKU']"
Sun Jun 28 19:08:19 +0000 2015,"[u'CML_VisualFeed', u'$ARMK']"
Sun Jun 28 19:08:05 +0000 2015,"[u'CML_VisualFeed', u'$HD']"
Sun Jun 28 19:06:20 +0000 2015,"[u'CML_VisualFeed', u'$DATA']"
Sun Jun 28 19:06:01 +0000 2015,"[u'CML_VisualFeed', u'$SCHW']"
Sun Jun 28 19:04:06 +0000 2015,"[u'CML_VisualFeed', u'$BX']"
Sun Jun 28 19:02:13 +0000 2015,"[u'CML_VisualFeed', u'$SONC']"
Sun Jun 28 18:56:20 +0000 2015,"[u'CML_VisualFeed', u'$MXWL']"
Sun Jun 28 18:56:01 +0000 2015,"[u'CML_VisualFeed', u'$VEEV']"
Sun Jun 28 18:54:24 +0000 2015,"[u'CML_VisualFeed', u'$VIPS']"
Sun Jun 28 18:53:35 +0000 2015,"[u'CML_VisualFeed', u'$URBN']"
Sun Jun 28 18:52:20 +0000 2015,"[u'CML_VisualFeed', u'$REGN']"
Sun Jun 28 18:52:00 +0000 2015,"[u'CML_VisualFeed', u'$QLYS']"
Sun Jun 28 18:50:21 +0000 2015,"[u'CML_VisualFeed', u'$VA']"
Sun Jun 28 18:50:01 +0000 2015,"[u'CML_VisualFeed', u'$LC']"
Sun Jun 28 18:48:09 +0000 2015,"[u'CML_VisualFeed', u'$KMI']"
Sun Jun 28 18:48:03 +0000 2015,"[u'CML_VisualFeed', u'$SBNY']"
Sun Jun 28 18:46:20 +0000 2015,"[u'CML_VisualFeed', u'$MOBL']"
Sun Jun 28 18:46:01 +0000 2015,"[u'CML_VisualFeed', u'$LOW']"
Sun Jun 28 19:12:06 +0000 2015,"[u'CML_VisualFeed', u'$QLYS']"
Sun Jun 28 19:10:03 +0000 2015,"[u'CML_VisualFeed', u'$YOKU']"
Sun Jun 28 19:08:19 +0000 2015,"[u'CML_VisualFeed', u'$ARMK']"
Sun Jun 28 19:08:05 +0000 2015,"[u'CML_VisualFeed', u'$HD']"
Sun Jun 28 19:06:20 +0000 2015,"[u'CML_VisualFeed', u'$DATA']"
Sun Jun 28 19:06:01 +0000 2015,"[u'CML_VisualFeed', u'$SCHW']"
Sun Jun 28 19:04:06 +0000 2015,"[u'CML_VisualFeed', u'$BX']"
Sun Jun 28 19:02:13 +0000 2015,"[u'CML_VisualFeed', u'$SONC']"
Sun Jun 28 18:56:20 +0000 2015,"[u'CML_VisualFeed', u'$MXWL']"
Sun Jun 28 18:56:01 +0000 2015,"[u'CML_VisualFeed', u'$VEEV']"
Sun Jun 28 18:54:24 +0000 2015,"[u'CML_VisualFeed', u'$VIPS']"
Sun Jun 28 18:53:35 +0000 2015,"[u'CML_VisualFeed', u'$URBN']"
Sun Jun 28 18:52:20 +0000 2015,"[u'CML_VisualFeed', u'$REGN']"
Sun Jun 28 18:52:00 +0000 2015,"[u'CML_VisualFeed', u'$QLYS']"
Sun Jun 28 18:50:21 +0000 2015,"[u'CML_VisualFeed', u'$VA']"
Sun Jun 28 18:50:01 +0000 2015,"[u'CML_VisualFeed', u'$LC']"
Sun Jun 28 18:48:09 +0000 2015,"[u'CML_VisualFeed', u'$KMI']"
Sun Jun 28 18:48:03 +0000 2015,"[u'CML_VisualFeed', u'$SBNY']"
Sun Jun 28 18:46:20 +0000 2015,"[u'CML_VisualFeed', u'$MOBL']"
Sun Jun 28 18:46:01 +0000 2015,"[u'CML_VisualFeed', u'$LOW']"
Sun Jun 28 16:42:09 +0000 2015,"[u'thelegacynewswi', u'$TRQ']"
Sun Jun 28 16:42:08 +0000 2015,"[u'thelegacynewswi', u'$241.00', u'$CAML']"
Sun Jun 28 16:27:32 +0000 2015,"[u'thelegacynewswi', u'$CALD']"
Sun Jun 28 16:25:49 +0000 2015,"[u'thelegacynewswi', u'$YY']"
Sun Jun 28 16:25:49 +0000 2015,"[u'thelegacynewswi', u'$LMAT']"
Sun Jun 28 16:25:48 +0000 2015,"[u'thelegacynewswi', u'$25.00', u'$MNTA']"
Sun Jun 28 16:25:48 +0000 2015,"[u'thelegacynewswi', u'$AVT']"
Sun Jun 28 16:25:48 +0000 2015,"[u'thelegacynewswi', u'$78.17', u'$VIA']"
Sun Jun 28 16:25:47 +0000 2015,"[u'thelegacynewswi', u'$STKL']"
Sun Jun 28 16:25:47 +0000 2015,"[u'thelegacynewswi', u'$CKEC']"
Sun Jun 28 16:25:46 +0000 2015,"[u'thelegacynewswi', u'$29.99', u'$WWW']"
Sun Jun 28 16:25:45 +0000 2015,"[u'thelegacynewswi', u'$PEP']"
Sun Jun 28 16:25:45 +0000 2015,"[u'thelegacynewswi', u'$NAV']"
Sun Jun 28 16:25:44 +0000 2015,"[u'thelegacynewswi', u'$38.96', u'$ADT']"
Sun Jun 28 16:25:44 +0000 2015,"[u'thelegacynewswi', u'$MAC']"
Sun Jun 28 16:25:43 +0000 2015,"[u'thelegacynewswi', u'$DRYS']"
Sun Jun 28 16:25:42 +0000 2015,"[u'thelegacynewswi', u'$KOF']"
Sun Jun 28 16:25:42 +0000 2015,"[u'thelegacynewswi', u'$AKAO']"
Sun Jun 28 16:25:41 +0000 2015,"[u'thelegacynewswi', u'$RP']"
Sun Jun 28 19:12:06 +0000 2015,"[u'CML_VisualFeed', u'$QLYS']"
Sun Jun 28 19:10:03 +0000 2015,"[u'CML_VisualFeed', u'$YOKU']"
Sun Jun 28 19:08:19 +0000 2015,"[u'CML_VisualFeed', u'$ARMK']"
Sun Jun 28 19:08:05 +0000 2015,"[u'CML_VisualFeed', u'$HD']"
Sun Jun 28 19:06:20 +0000 2015,"[u'CML_VisualFeed', u'$DATA']"
Sun Jun 28 19:06:01 +0000 2015,"[u'CML_VisualFeed', u'$SCHW']"
Sun Jun 28 19:04:06 +0000 2015,"[u'CML_VisualFeed', u'$BX']"
Sun Jun 28 19:02:13 +0000 2015,"[u'CML_VisualFeed', u'$SONC']"
Sun Jun 28 18:56:20 +0000 2015,"[u'CML_VisualFeed', u'$MXWL']"
Sun Jun 28 18:56:01 +0000 2015,"[u'CML_VisualFeed', u'$VEEV']"
Sun Jun 28 18:54:24 +0000 2015,"[u'CML_VisualFeed', u'$VIPS']"
Sun Jun 28 18:53:35 +0000 2015,"[u'CML_VisualFeed', u'$URBN']"
Sun Jun 28 18:52:20 +0000 2015,"[u'CML_VisualFeed', u'$REGN']"
Sun Jun 28 18:52:00 +0000 2015,"[u'CML_VisualFeed', u'$QLYS']"
Sun Jun 28 18:50:21 +0000 2015,"[u'CML_VisualFeed', u'$VA']"
Sun Jun 28 18:50:01 +0000 2015,"[u'CML_VisualFeed', u'$LC']"
Sun Jun 28 18:48:09 +0000 2015,"[u'CML_VisualFeed', u'$KMI']"
Sun Jun 28 18:48:03 +0000 2015,"[u'CML_VisualFeed', u'$SBNY']"
Sun Jun 28 18:46:20 +0000 2015,"[u'CML_VisualFeed', u'$MOBL']"
Sun Jun 28 18:46:01 +0000 2015,"[u'CML_VisualFeed', u'$LOW']"
Sat Jun 27 23:34:33 +0000 2015,"[u'kaneco501_1', u'$20']"
Fri Jun 26 20:36:36 +0000 2015,"[u'stocksecret99', u'$240,000', u'$BTZO', u'$SFOR', u'$SAFC']"
Fri Jun 26 20:35:36 +0000 2015,"[u'stocksecret99', u'$240,000', u'$PCWT', u'$HYII', u'$MJNA']"
Fri Jun 26 20:34:36 +0000 2015,"[u'stocksecret99', u'$240,000', u'$ACYD', u'$FNMA', u'$WNTR']"
Fri Jun 26 20:33:36 +0000 2015,"[u'stocksecret99', u'$240,000', u'$TDEY', u'$CBYI', u'$GLER']"
Fri Jun 26 20:32:36 +0000 2015,"[u'stocksecret99', u'$240,000', u'$HLOSF', u'$CLNP', u'$HAS']"
Fri Jun 26 20:31:36 +0000 2015,"[u'stocksecret99', u'$240,000', u'$IWM', u'$ANDI', u'$GDSM']"
Fri Jun 26 20:30:36 +0000 2015,"[u'stocksecret99', u'$240,000']"
Fri Jun 26 20:29:36 +0000 2015,"[u'stocksecret99', u'$240,000']"
Fri Jun 26 20:28:36 +0000 2015,"[u'stocksecret99', u'$240,000']"
Fri Jun 26 20:27:36 +0000 2015,"[u'stocksecret99', u'$240,000', u'$GS', u'$ZION', u'$ISRA']"
Fri Jun 26 20:26:36 +0000 2015,"[u'stocksecret99', u'$240,000', u'$LVS', u'$JPM', u'$MHYS']"
Fri Jun 26 20:25:36 +0000 2015,"[u'stocksecret99', u'$240,000', u'$PRLB', u'$P', u'$NXPI']"
Fri Jun 26 20:24:36 +0000 2015,"[u'stocksecret99', u'$240,000', u'$Q', u'$TWTR', u'$YY']"
Fri Jun 26 20:23:36 +0000 2015,"[u'stocksecret99', u'$240,000', u'$IR', u'$NATI', u'$HAR']"
Fri Jun 26 20:22:36 +0000 2015,"[u'stocksecret99', u'$240,000', u'$MPO', u'$OSUR', u'$XRX']"
Fri Jun 26 20:21:36 +0000 2015,"[u'stocksecret99', u'$240,000', u'$WES', u'$CQH', u'$WG']"
Fri Jun 26 20:20:36 +0000 2015,"[u'stocksecret99', u'$240,000', u'$CHL', u'$ADEP', u'$UPIP']"
Fri Jun 26 20:19:36 +0000 2015,"[u'stocksecret99', u'$240,000', u'$XTXI', u'$BNFT', u'$DDC']"
Fri Jun 26 20:18:36 +0000 2015,"[u'stocksecret99', u'$240,000', u'$TSL', u'$KERX', u'$GGAL']"
Fri Jun 26 20:17:36 +0000 2015,"[u'stocksecret99', u'$240,000', u'$PQ', u'$HUSA', u'$SZYM']"
Fri Jun 26 17:25:17 +0000 2015,"[u'Alphatrader2015', u'$QNET', u'$QQQ', u'$IWM']"
Fri Jun 26 17:25:01 +0000 2015,"[u'Alphatrader2015', u'$QTWO', u'$NHTC', u'$IWM', u'$SPY', u'$IWM']"
Fri Jun 26 17:24:13 +0000 2015,"[u'Alphatrader2015', u'$VDSI', u'$FEYE', u'$CYBR', u'$QLYS']"
Fri Jun 26 02:08:40 +0000 2015,"[u'Alphatrader2015', u'$QTWO', u'$NHTC', u'$IWM']"
Fri Jun 26 02:08:32 +0000 2015,"[u'Alphatrader2015', u'$MEI!', u'$TSLA', u'$20,', u'$SPY', u'$IWM']"
Thu Jun 25 10:32:14 +0000 2015,"[u'Alphatrader2015', u'$SPY', u'$QQQ', u'$IWM', u'$NVRO', u'$NHTC']"
Thu Jun 25 10:31:57 +0000 2015,"[u'Alphatrader2015', u'$HACK..POP', u'$NFLX', u'$NOW', u'$FEYE', u'$PAYC', u'$QLYS', u'$CYBR', u'$N', u'$DATA', u'$SPY']"
Tue Jun 23 20:24:18 +0000 2015,"[u'Alphatrader2015', u'$XLF', u'$JPM', u'$BKX', u'$GS', u'$BAC', u'$\u2026']"
Tue Jun 23 20:24:10 +0000 2015,"[u'Alphatrader2015', u'$AVGO', u'$BLUE', u'$ILMN', u'$CRM', u'$CMCM', u'$FEYE']"
Tue Jun 23 20:24:02 +0000 2015,"[u'Alphatrader2015', u'$AMBA']"
Tue Jun 23 20:23:46 +0000 2015,"[u'Alphatrader2015', u'$SPY']"
Sun Jun 21 02:15:46 +0000 2015,"[u'Alphatrader2015', u'$NHTC', u'$FEYE', u'$AVGO', u'$MA', u'$NFLX', u'$SPY', u'$IWM', u'$AAPL', u'$GOOG']"
Sun Jun 21 02:14:26 +0000 2015,"[u'Alphatrader2015', u'$FEYE', u'$CYBR', u'$CMCM', u'$CYBR', u'$SPY', u'$IWM']"
Thu Jun 18 13:57:36 +0000 2015,"[u'Alphatrader2015', u'$NHTC', u'$46']"
Sat Jun 13 22:42:06 +0000 2015,"[u'Alphatrader2015', u'$FEYE', u'$AVGO', u'$MEI', u'$IPGP', u'$CSGP', u'$IWM', u'$SPY']"
Sat Jun 13 17:04:49 +0000 2015,"[u'Alphatrader2015', u'$JPM', u'$68+', u'$BKX', u'$S\u2026']"
Sat Jun 13 17:04:35 +0000 2015,"[u'Alphatrader2015', u'$XENT', u'$29.50H', u'$25', u'$IBB', u'$ILMN']"
Sat Jun 13 17:04:25 +0000 2015,"[u'Alphatrader2015', u'$TWTR', u'$S\u2026']"
Sat Jun 27 22:22:53 +0000 2015,"[u'Hipster_Trader', u'$BTCUSD']"
Sat Jun 27 16:45:00 +0000 2015,"[u'Hipster_Trader', u'$BTCUSD']"
Sat Jun 27 16:41:59 +0000 2015,"[u'Hipster_Trader', u'$BTCUSD']"
Fri Jun 26 23:39:16 +0000 2015,"[u'Hipster_Trader', u'$LULU']"
Fri Jun 26 22:11:22 +0000 2015,"[u'Hipster_Trader', u'$GSB']"
Fri Jun 26 21:46:20 +0000 2015,"[u'Hipster_Trader', u'$38']"
Fri Jun 26 19:49:19 +0000 2015,"[u'Hipster_Trader', u'$WWAV']"
Fri Jun 26 18:33:49 +0000 2015,"[u'Hipster_Trader', u'$NFLX']"
Fri Jun 26 18:04:26 +0000 2015,"[u'Hipster_Trader', u'$$']"
Fri Jun 26 18:01:11 +0000 2015,"[u'Hipster_Trader', u'$BTCUSD']"
Fri Jun 26 17:05:26 +0000 2015,"[u'Hipster_Trader', u'$GSB']"
Fri Jun 26 17:03:02 +0000 2015,"[u'Hipster_Trader', u'$HACK', u'$FEYE', u'$CYBR', u'$VDSI', u'$QLYS']"
Fri Jun 26 21:00:38 +0000 2015,"[u'SyedWaqasNabi', u'$66.77', u'$CSC']"
Fri Jun 26 21:00:37 +0000 2015,"[u'SyedWaqasNabi', u'$56.31', u'$SPR']"
Fri Jun 26 21:00:37 +0000 2015,"[u'SyedWaqasNabi', u'$54.50', u'$GB']"
Fri Jun 26 21:00:37 +0000 2015,"[u'SyedWaqasNabi', u'$48.80', u'$PDCO']"
Fri Jun 26 21:00:36 +0000 2015,"[u'SyedWaqasNabi', u'$48.77', u'$NEOG']"
Fri Jun 26 21:00:36 +0000 2015,"[u'SyedWaqasNabi', u'$46.07', u'$BMS']"
Fri Jun 26 21:00:36 +0000 2015,"[u'SyedWaqasNabi', u'$34.76', u'$VASC']"
Fri Jun 26 21:00:35 +0000 2015,"[u'SyedWaqasNabi', u'$3.98', u'$MITK']"
Fri Jun 26 21:00:35 +0000 2015,"[u'SyedWaqasNabi', u'$21.03', u'$CLCT']"
Fri Jun 26 21:00:35 +0000 2015,"[u'SyedWaqasNabi', u'$2.19', u'$COSI']"
Fri Jun 26 21:00:34 +0000 2015,"[u'SyedWaqasNabi', u'$14.63', u'$PGTI']"
Fri Jun 26 21:00:34 +0000 2015,"[u'SyedWaqasNabi', u'$13.44', u'$RDI']"
Fri Jun 26 21:00:34 +0000 2015,"[u'SyedWaqasNabi', u'$11.08', u'$PZN']"
Fri Jun 26 21:00:33 +0000 2015,"[u'SyedWaqasNabi', u'$8.96', u'$MITL']"
Fri Jun 26 21:00:33 +0000 2015,"[u'SyedWaqasNabi', u'$58.46', u'$MRK']"
Fri Jun 26 21:00:32 +0000 2015,"[u'SyedWaqasNabi', u'$5.81', u'$MATR']"
Fri Jun 26 21:00:32 +0000 2015,"[u'SyedWaqasNabi', u'$42.57', u'$TSS']"
Fri Jun 26 21:00:32 +0000 2015,"[u'SyedWaqasNabi', u'$1.82', u'$PIP']"
Fri Jun 26 21:00:32 +0000 2015,"[u'SyedWaqasNabi', u'$1.42', u'$ESMC']"
Fri Jun 26 21:00:30 +0000 2015,"[u'SyedWaqasNabi', u'$42.90', u'$GSK']"
Sun Jun 28 16:42:09 +0000 2015,"[u'thelegacynewswi', u'$TRQ']"
Sun Jun 28 16:42:08 +0000 2015,"[u'thelegacynewswi', u'$241.00', u'$CAML']"
Sun Jun 28 16:27:32 +0000 2015,"[u'thelegacynewswi', u'$CALD']"
Sun Jun 28 16:25:49 +0000 2015,"[u'thelegacynewswi', u'$YY']"
Sun Jun 28 16:25:49 +0000 2015,"[u'thelegacynewswi', u'$LMAT']"
Sun Jun 28 16:25:48 +0000 2015,"[u'thelegacynewswi', u'$25.00', u'$MNTA']"
Sun Jun 28 16:25:48 +0000 2015,"[u'thelegacynewswi', u'$AVT']"
Sun Jun 28 16:25:48 +0000 2015,"[u'thelegacynewswi', u'$78.17', u'$VIA']"
Sun Jun 28 16:25:47 +0000 2015,"[u'thelegacynewswi', u'$STKL']"
Sun Jun 28 16:25:47 +0000 2015,"[u'thelegacynewswi', u'$CKEC']"
Sun Jun 28 16:25:46 +0000 2015,"[u'thelegacynewswi', u'$29.99', u'$WWW']"
Sun Jun 28 16:25:45 +0000 2015,"[u'thelegacynewswi', u'$PEP']"
Sun Jun 28 16:25:45 +0000 2015,"[u'thelegacynewswi', u'$NAV']"
Sun Jun 28 16:25:44 +0000 2015,"[u'thelegacynewswi', u'$38.96', u'$ADT']"
Sun Jun 28 16:25:44 +0000 2015,"[u'thelegacynewswi', u'$MAC']"
Sun Jun 28 16:25:43 +0000 2015,"[u'thelegacynewswi', u'$DRYS']"
Sun Jun 28 16:25:42 +0000 2015,"[u'thelegacynewswi', u'$KOF']"
Sun Jun 28 16:25:42 +0000 2015,"[u'thelegacynewswi', u'$AKAO']"
Sun Jun 28 16:25:41 +0000 2015,"[u'thelegacynewswi', u'$RP']"
